1.100000000000000089e+00
1.200000000000000178e+00
1.300000000000000266e+00
1.400000000000000355e+00
1.500000000000000444e+00
1.600000000000000533e+00
1.700000000000000622e+00
1.800000000000000711e+00
1.900000000000000799e+00
