6.777618999999999687e+03
6.737357567975609527e+03
6.616975550822566220e+03
6.417675765863258675e+03
6.141449550669251039e+03
5.791056866274513595e+03
5.369998720557096021e+03
4.882482187325691484e+03
4.333378370628805897e+03
3.728173734293283815e+03
3.072915282991338245e+03
2.374150142568727460e+03
1.638860143327510968e+03
8.743920598855495427e+02
8.838420463304055374e+01
-7.113098917599824063e+02
-1.516699950226086685e+03
-2.319738779527634961e+03
-3.112402681131588906e+03
-3.886771619352974994e+03
-4.635108355733420467e+03
-5.349935756970252442e+03
-6.024111503960832124e+03
-6.650899455494105496e+03
-7.224036953546899895e+03
-7.737797397692738741e+03
-8.187047463400346714e+03
-8.567298392515496744e+03
-8.874750843448717205e+03
-9.106332852940551675e+03
-9.259730530102990087e+03
-9.333411176052359224e+03
-9.326638598129915408e+03
-9.239480465695542080e+03
-9.072807633997874291e+03
-8.828285442876527668e+03
-8.508357077236891200e+03
-8.116219155554178542e+03
-7.655789790318282940e+03
-7.131669439548927585e+03
-6.549094940539848722e+03
-5.913887185111610961e+03
-5.232392959184696338e+03
-4.511421527792522284e+03
-3.758176599156081465e+03
-2.980184347612653710e+03
-2.185218214569600150e+03
-1.381221238847435188e+03
-5.762266924614945083e+02
2.217221851765380052e+02
1.004652552648140272e+03
1.764741628523914414e+03
2.494394854009738992e+03
3.186321775267862904e+03
3.833608887221692385e+03
4.429788711013264219e+03
4.968904414914105473e+03
5.445569333018788711e+03
5.855020787030092833e+03
6.193167673366185227e+03
6.456631340115299281e+03
6.642779345408789595e+03
6.749751759910109286e+03
6.776479750613942088e+03
