1.826413476873812281e-06 2.521803065565865649e-03 -5.520307571931768158e-07 -2.969260264605713128e-05 0.000000000000000000e+00 0.000000000000000000e+00
3.934393348271802691e-06 -2.982608312007639867e-04 9.551928122989490310e-08 2.422641378878847684e-03 0.000000000000000000e+00 0.000000000000000000e+00
0.000000000000000000e+00 0.000000000000000000e+00 0.000000000000000000e+00 0.000000000000000000e+00 2.922661776567384838e-07 1.666666666666666774e-03
