1.000000000000000000e+00 0.000000000000000000e+00 0.000000000000000000e+00 -2.083333333333333467e-04 0.000000000000000000e+00 0.000000000000000000e+00 0.000000000000000000e+00
9.953123528274929743e-01 -2.759498767912798439e-03 0.000000000000000000e+00 -3.096562872812193257e-05 -1.414282641707349580e-04 0.000000000000000000e+00 1.600000000000000131e-04
9.971359012589624538e-01 -1.155759044356907336e-02 0.000000000000000000e+00 1.173908385580924160e-04 -3.011357929310315537e-04 0.000000000000000000e+00 3.199999999999999178e-04
1.004330160824522755e+00 -2.703552132702914321e-02 0.000000000000000000e+00 2.377358416399133749e-04 -4.747511261424620715e-04 0.000000000000000000e+00 4.799999999999998495e-04
1.015793837938717692e+00 -4.967295919238771951e-02 0.000000000000000000e+00 3.310057094610512063e-04 -6.585276231594669591e-04 0.000000000000000000e+00 6.399999999999998355e-04
1.030459961582738337e+00 -7.980879157271225655e-02 0.000000000000000000e+00 3.979691601079301394e-04 -8.491429684053367110e-04 0.000000000000000000e+00 7.999999999999998215e-04
1.047288106439162592e+00 -1.176546109187487504e-01 0.000000000000000000e+00 4.391802153884255804e-04 -1.043528967879556396e-03 0.000000000000000000e+00 9.599999999999999159e-04
1.065255512389443382e+00 -1.633019199683309053e-01 0.000000000000000000e+00 4.549691790605458509e-04 -1.238726261415441917e-03 0.000000000000000000e+00 1.119999999999999902e-03
1.083348432814845719e+00 -2.167238707746337312e-01 0.000000000000000000e+00 4.454616764884749072e-04 -1.431756966098631390e-03 0.000000000000000000e+00 1.279999999999999888e-03
1.100554751014990895e+00 -2.777721832992575690e-01 0.000000000000000000e+00 4.106231762365615198e-04 -1.619508672153219123e-03 0.000000000000000000e+00 1.439999999999999874e-03
1.115858937391203565e+00 -3.461696015324685072e-01 0.000000000000000000e+00 3.503330772419779317e-04 -1.798626946087774747e-03 0.000000000000000000e+00 1.600000000000000077e-03
1.128240718546258847e+00 -4.214981886613559658e-01 0.000000000000000000e+00 2.644972217858112184e-04 -1.965418984899126691e-03 0.000000000000000000e+00 1.760000000000000279e-03
1.136679163572722029e+00 -5.031842398782535586e-01 0.000000000000000000e+00 1.532071417319150078e-04 -2.115778716535325014e-03 0.000000000000000000e+00 1.920000000000000265e-03
1.140164178257819572e+00 -5.904809044643043459e-01 0.000000000000000000e+00 1.695172519387670119e-05 -2.245151979003203076e-03 0.000000000000000000e+00 2.080000000000000251e-03
1.138698922212658893e+00 -6.815912846709596407e-01 0.000000000000000000e+00 -6.471738816628243914e-05 -2.283053089771472973e-03 0.000000000000000000e+00 2.137841938785136134e-03
1.135282753709090153e+00 -7.727818660541528883e-01 0.000000000000000000e+00 -1.060663492819501617e-04 -2.275898283188649337e-03 0.000000000000000000e+00 2.137841938785136134e-03
1.130216135721729964e+00 -8.636170697867483481e-01 0.000000000000000000e+00 -1.472292351057411322e-04 -2.265286783290226119e-03 0.000000000000000000e+00 2.137841938785136134e-03
1.123507926693428693e+00 -9.539589827780360354e-01 0.000000000000000000e+00 -1.881338345024905433e-04 -2.251237143155521842e-03 0.000000000000000000e+00 2.137841938785136134e-03
1.115169836074365151e+00 -1.043670534158699370e+00 0.000000000000000000e+00 -2.287083773322786426e-04 -2.233773886999644402e-03 0.000000000000000000e+00 2.137841938785136134e-03
1.105216567071192424e+00 -1.132615789783701032e+00 0.000000000000000000e+00 -2.688816886420292542e-04 -2.212927809146597331e-03 0.000000000000000000e+00 2.137841938785136134e-03
1.093665583491858717e+00 -1.220660153765422251e+00 0.000000000000000000e+00 -3.085832941902318235e-04 -2.188735485710217518e-03 0.000000000000000000e+00 2.137841938785136134e-03
1.080537129563858834e+00 -1.307670602857046172e+00 0.000000000000000000e+00 -3.477435431679812088e-04 -2.161239316101419908e-03 0.000000000000000000e+00 2.137841938785136134e-03
1.065854233709681909e+00 -1.393515923351525743e+00 0.000000000000000000e+00 -3.862937322389096528e-04 -2.130487530935482130e-03 0.000000000000000000e+00 2.137841938785136134e-03
1.049642659942925382e+00 -1.478066947665500619e+00 0.000000000000000000e+00 -4.241662294144543568e-04 -2.096534090236300794e-03 0.000000000000000000e+00 2.137841938785136134e-03
1.031930848580950189e+00 -1.561196792419413892e+00 0.000000000000000000e+00 -4.612945987124262128e-04 -2.059438559265268018e-03 0.000000000000000000e+00 2.137841938785136134e-03
1.012749877640020557e+00 -1.642781031652436274e+00 0.000000000000000000e+00 -4.976136908520903184e-04 -2.019266027667439116e-03 0.000000000000000000e+00 2.137841938785136134e-03
9.921333971461504531e-01 -1.722697972944181366e+00 0.000000000000000000e+00 -5.330597878311455970e-04 -1.976086971892492862e-03 0.000000000000000000e+00 2.137841938785136134e-03
9.701175709157758842e-01 -1.800828871785192797e+00 0.000000000000000000e+00 -5.675707151698393535e-04 -1.929977133260456527e-03 0.000000000000000000e+00 2.137841938785136134e-03
9.467410194850861549e-01 -1.877058112610400009e+00 0.000000000000000000e+00 -6.010859366998598302e-04 -1.881017398433177312e-03 0.000000000000000000e+00 2.137841938785136134e-03
9.220447541974939876e-01 -1.951273400587057560e+00 0.000000000000000000e+00 -6.335466549842691010e-04 -1.829293661367441129e-03 0.000000000000000000e+00 2.137841938785136134e-03
8.960721024003338586e-01 -2.023365966208585220e+00 0.000000000000000000e+00 -6.648959184425955052e-04 -1.774896666647305049e-03 0.000000000000000000e+00 2.137841938785136134e-03
8.688686290846493465e-01 -2.093230766794067499e+00 0.000000000000000000e+00 -6.950787268557254714e-04 -1.717921845366851682e-03 0.000000000000000000e+00 2.137841938785136134e-03
8.404820585190593274e-01 -2.160766668392068102e+00 0.000000000000000000e+00 -7.240421266105166037e-04 -1.658469151000541153e-03 0.000000000000000000e+00 2.137841938785136134e-03
8.109621910082998042e-01 -2.225876634195229187e+00 0.000000000000000000e+00 -7.517353093534516126e-04 -1.596642885062710300e-03 0.000000000000000000e+00 2.137841938785136134e-03
7.803608140319799880e-01 -2.288467879638992564e+00 0.000000000000000000e+00 -7.781096932001326308e-04 -1.532551510997018189e-03 0.000000000000000000e+00 2.137841938785136134e-03
7.487316122402979390e-01 -2.348452036599380843e+00 0.000000000000000000e+00 -8.031190087090431771e-04 -1.466307465671913167e-03 0.000000000000000000e+00 2.137841938785136134e-03
7.161300744237502069e-01 -2.405745311016612931e+00 0.000000000000000000e+00 -8.267193814130779439e-04 -1.398026964538449024e-03 0.000000000000000000e+00 2.137841938785136134e-03
6.826133953976044610e-01 -2.460268627554341503e+00 0.000000000000000000e+00 -8.488694075629451240e-04 -1.327829796137604398e-03 0.000000000000000000e+00 2.137841938785136134e-03
6.482403743248240646e-01 -2.511947769944115283e+00 0.000000000000000000e+00 -8.695302276113545462e-04 -1.255839109148314866e-03 0.000000000000000000e+00 2.137841938785136134e-03
6.130713113526504721e-01 -2.560713507142128087e+00 0.000000000000000000e+00 -8.886655922685357187e-04 -1.182181195903636659e-03 0.000000000000000000e+00 2.137841938785136134e-03
5.771679070399349243e-01 -2.606501731853209769e+00 0.000000000000000000e+00 -9.062419350332314100e-04 -1.106985281751842560e-03 0.000000000000000000e+00 2.137841938785136134e-03
5.405931480935457500e-01 -2.649253554180138526e+00 0.000000000000000000e+00 -9.222284212273612397e-04 -1.030383285743313292e-03 0.000000000000000000e+00 2.137841938785136134e-03
5.034111974964138314e-01 -2.688915404945451559e+00 0.000000000000000000e+00 -9.365970020951958205e-04 -9.525095905152544630e-04 0.000000000000000000e+00 2.137841938785136134e-03
4.656872881803525432e-01 -2.725439153715131457e+00 0.000000000000000000e+00 -9.493224766004142471e-04 -8.735008196005708244e-04 0.000000000000000000e+00 2.137841938785136134e-03
4.274875989677218713e-01 -2.758782155837385286e+00 0.000000000000000000e+00 -9.603825160555520997e-04 -7.934955776006948850e-04 0.000000000000000000e+00 2.137841938785136134e-03
3.888791454700450401e-01 -2.788907354455670173e+00 0.000000000000000000e+00 -9.697577175358956282e-04 -7.126342216841850818e-04 0.000000000000000000e+00 2.137841938785136134e-03
3.499296606011795818e-01 -2.815783341613034896e+00 0.000000000000000000e+00 -9.774316358736412445e-04 -6.310586113340955301e-04 0.000000000000000000e+00 2.137841938785136134e-03
3.107074737648410356e-01 -2.839384397820168271e+00 0.000000000000000000e+00 -9.833908043756767452e-04 -5.489118553189171633e-04 0.000000000000000000e+00 2.137841938785136134e-03
2.712813949515027190e-01 -2.859690562792805757e+00 0.000000000000000000e+00 -9.876247718616005568e-04 -4.663380689456932907e-04 0.000000000000000000e+00 2.137841938785136134e-03
2.317205907605083826e-01 -2.876687651104259835e+00 0.000000000000000000e+00 -9.901261108593679364e-04 -3.834821144013384310e-04 0.000000000000000000e+00 2.137841938785136134e-03
1.920944637277408606e-01 -2.890367274254300511e+00 0.000000000000000000e+00 -9.908904291605292926e-04 -3.004893480170994888e-04 0.000000000000000000e+00 2.137841938785136134e-03
1.524725324116650849e-01 -2.900726881606099816e+00 0.000000000000000000e+00 -9.899163912547644540e-04 -2.175053691213507797e-04 0.000000000000000000e+00 2.137841938785136134e-03
1.129243066916536808e-01 -2.907769732854171618e+00 0.000000000000000000e+00 -9.872057039141300065e-04 -1.346757588650182222e-04 0.000000000000000000e+00 2.137841938785136134e-03
7.351916766044550022e-02 -2.911504904446105879e+00 0.000000000000000000e+00 -9.827631195554703374e-04 -5.214582866893282631e-05 0.000000000000000000e+00 2.137841938785136134e-03
3.432624533336910144e-02 -2.911947291806293858e+00 0.000000000000000000e+00 -9.765964374047588284e-04 2.993963590137291232e-05 0.000000000000000000e+00 2.137841938785136134e-03
-4.585702617471218781e-03 -2.909117548870413295e+00 0.000000000000000000e+00 -9.687164718374275275e-04 1.114366291141918343e-04 0.000000000000000000e+00 2.137841938785136134e-03
-4.314841129150950860e-02 -2.903042079923841001e+00 0.000000000000000000e+00 -9.591370481049709502e-04 1.922021772961132161e-04 0.000000000000000000e+00 2.137841938785136134e-03
-8.129422897911707524e-02 -2.893752985331381034e+00 0.000000000000000000e+00 -9.478749739190958949e-04 2.720945910378222681e-04 0.000000000000000000e+00 2.137841938785136134e-03
-1.189562343013281509e-01 -2.881287991193066667e+00 0.000000000000000000e+00 -9.349500026195887211e-04 3.509737105309675880e-04 0.000000000000000000e+00 2.137841938785136134e-03
-1.560683558612759314e-01 -2.865690410526723575e+00 0.000000000000000000e+00 -9.203848128495494994e-04 4.287011561655430358e-04 0.000000000000000000e+00 2.137841938785136134e-03
-1.925654865520417536e-01 -2.847009043858694355e+00 0.000000000000000000e+00 -9.042049565048202592e-04 5.051405679356872538e-04 0.000000000000000000e+00 2.137841938785136134e-03
-2.283835966654917948e-01 -2.825298095254103803e+00 0.000000000000000000e+00 -8.864388147675331987e-04 5.801578423342772890e-04 0.000000000000000000e+00 2.137841938785136134e-03
-2.634598505852741024e-01 -2.800617101001790399e+00 0.000000000000000000e+00 -8.671175607656268986e-04 6.536213767541695918e-04 0.000000000000000000e+00 2.137841938785136134e-03
-2.977327121494223738e-01 -2.773030793111933345e+00 0.000000000000000000e+00 -8.462750881003740667e-04 7.254022901591217643e-04 0.000000000000000000e+00 2.137841938785136134e-03
-3.311420541303830012e-01 -2.742609001607357655e+00 0.000000000000000000e+00 -8.239479596862255657e-04 7.953746523782251766e-04 0.000000000000000000e+00 2.137841938785136134e-03
-3.636292673218893268e-01 -2.709426542683097239e+00 0.000000000000000000e+00 -8.001753491912957537e-04 8.634157125769196433e-04 0.000000000000000000e+00 2.137841938785136134e-03
-3.951373563409991130e-01 -2.673563060374971379e+00 0.000000000000000000e+00 -7.749989581352237714e-04 9.294060999043120622e-04 0.000000000000000000e+00 2.137841938785136134e-03
-4.256110459640958799e-01 -2.635102912285902654e+00 0.000000000000000000e+00 -7.484629560556121507e-04 9.932300462027763080e-04 0.000000000000000000e+00 2.137841938785136134e-03
-4.549968759403336116e-01 -2.594135010779269113e+00 0.000000000000000000e+00 -7.206138973570608850e-04 1.054775584584767729e-03 0.000000000000000000e+00 2.137841938785136134e-03
-4.832432911697542854e-01 -2.550752658804731787e+00 0.000000000000000000e+00 -6.915006353497727418e-04 1.113934738301430860e-03 0.000000000000000000e+00 2.137841938785136134e-03
-5.103007402017986083e-01 -2.505053408199225284e+00 0.000000000000000000e+00 -6.611742480561235433e-04 1.170603727037398045e-03 0.000000000000000000e+00 2.137841938785136134e-03
-5.361217548547800860e-01 -2.457138867448507291e+00 0.000000000000000000e+00 -6.296879375548466691e-04 1.224683133665425364e-03 0.000000000000000000e+00 2.137841938785136134e-03
-5.606610336139540296e-01 -2.407114527418424021e+00 0.000000000000000000e+00 -5.970969387341358656e-04 1.276078078914900590e-03 0.000000000000000000e+00 2.137841938785136134e-03
-5.838755300796423242e-01 -2.355089593455925723e+00 0.000000000000000000e+00 -5.634584313799435645e-04 1.324698406617162705e-03 0.000000000000000000e+00 2.137841938785136134e-03
-6.057245161819196921e-01 -2.301176768597145372e+00 0.000000000000000000e+00 -5.288314266639945055e-04 1.370458816102029234e-03 0.000000000000000000e+00 2.137841938785136134e-03
-6.261696602965691749e-01 -2.245492070830265696e+00 0.000000000000000000e+00 -4.932766714628488217e-04 1.413279025803474299e-03 0.000000000000000000e+00 2.137841938785136134e-03
-6.451750978458888897e-01 -2.188154632572739455e+00 0.000000000000000000e+00 -4.568565433644187308e-04 1.453083921125608927e-03 0.000000000000000000e+00 2.137841938785136134e-03
-6.627074836230588684e-01 -2.129286476230332070e+00 0.000000000000000000e+00 -4.196349331509589570e-04 1.489803664030581870e-03 0.000000000000000000e+00 2.137841938785136134e-03
-6.787360615998118130e-01 -2.069012317104148568e+00 0.000000000000000000e+00 -3.816771416014264648e-04 1.523373839243420593e-03 0.000000000000000000e+00 2.137841938785136134e-03
-6.932327132190235774e-01 -2.007459335091470898e+00 0.000000000000000000e+00 -3.430497599543183345e-04 1.553735555395798244e-03 0.000000000000000000e+00 2.137841938785136134e-03
-7.061720028745973599e-01 -1.944756949217551378e+00 0.000000000000000000e+00 -3.038205518527958295e-04 1.580835540278878980e-03 0.000000000000000000e+00 2.137841938785136134e-03
-7.175312345685711524e-01 -1.881036602678842096e+00 0.000000000000000000e+00 -2.640583407935823308e-04 1.604626259505687177e-03 0.000000000000000000e+00 2.137841938785136134e-03
-7.272904795316962323e-01 -1.816431519167143627e+00 0.000000000000000000e+00 -2.238328825385852154e-04 1.625065974359511667e-03 0.000000000000000000e+00 2.137841938785136134e-03
-7.354326132004036509e-01 -1.751076473456134153e+00 0.000000000000000000e+00 -1.832147449942836685e-04 1.642118819238283251e-03 0.000000000000000000e+00 2.137841938785136134e-03
-7.419433568267306267e-01 -1.685107562030089268e+00 0.000000000000000000e+00 -1.422751881132079015e-04 1.655754888802200191e-03 0.000000000000000000e+00 2.137841938785136134e-03
-7.468112852570761850e-01 -1.618661952364213175e+00 0.000000000000000000e+00 -1.010860326174266234e-04 1.665950254265516654e-03 0.000000000000000000e+00 2.137841938785136134e-03
-7.500278579773649312e-01 -1.551877650661328101e+00 0.000000000000000000e+00 -5.971953838576262309e-05 1.672687028417381037e-03 0.000000000000000000e+00 2.137841938785136134e-03
-7.515874353055368440e-01 -1.484893258206735123e+00 0.000000000000000000e+00 -1.824827688149569611e-05 1.675953399535307824e-03 0.000000000000000000e+00 2.137841938785136134e-03
-7.514872772470475581e-01 -1.417847724853090963e+00 0.000000000000000000e+00 2.325499792265333683e-05 1.675743628988142541e-03 0.000000000000000000e+00 2.137841938785136134e-03
-7.497275621766396059e-01 -1.350880110067016249e+00 0.000000000000000000e+00 6.471747466022659398e-05 1.672058090363072631e-03 0.000000000000000000e+00 2.137841938785136134e-03
-7.463113778515845231e-01 -1.284129335270671968e+00 0.000000000000000000e+00 1.060664142446763594e-04 1.664903250643804886e-03 0.000000000000000000e+00 2.137841938785136134e-03
-7.412447134600408383e-01 -1.217733941774952200e+00 0.000000000000000000e+00 1.472292766152486063e-04 1.654291653556685775e-03 0.000000000000000000e+00 2.137841938785136134e-03
-7.345364623627225198e-01 -1.151831847629705585e+00 0.000000000000000000e+00 1.881338480499096977e-04 1.640241925312838469e-03 0.000000000000000000e+00 2.137841938785136134e-03
-7.261983917903972463e-01 -1.086560104937849713e+00 0.000000000000000000e+00 2.287083682353786786e-04 1.622778711142751958e-03 0.000000000000000000e+00 2.137841938785136134e-03
-7.162451259504565293e-01 -1.022054661420232602e+00 0.000000000000000000e+00 2.688816551114742940e-04 1.601932639914762594e-03 0.000000000000000000e+00 2.137841938785136134e-03
-7.046941319794355341e-01 -9.584501178826541068e-01 0.000000000000000000e+00 3.085832318610852052e-04 1.577740294714082784e-03 0.000000000000000000e+00 2.137841938785136134e-03
-6.915656705935206983e-01 -8.958794970536535507e-01 0.000000000000000000e+00 3.477434479464213508e-04 1.550244109485464632e-03 0.000000000000000000e+00 2.137841938785136134e-03
-6.768827738448922604e-01 -8.344740072135010678e-01 0.000000000000000000e+00 3.862936028725850882e-04 1.519492322446192034e-03 0.000000000000000000e+00 2.137841938785136134e-03
-6.606712031345297609e-01 -7.743628106000316480e-01 0.000000000000000000e+00 4.241660674499923324e-04 1.485538888148308159e-03 0.000000000000000000e+00 2.137841938785136134e-03
-6.429593952098335841e-01 -7.156728028805774411e-01 0.000000000000000000e+00 4.612943992625993870e-04 1.448443364376295409e-03 0.000000000000000000e+00 2.137841938785136134e-03
-6.237784256376889269e-01 -6.585283822856473623e-01 0.000000000000000000e+00 4.976134635492250949e-04 1.408270835645242984e-03 0.000000000000000000e+00 2.137841938785136134e-03
-6.031619444386148166e-01 -6.030512367971623267e-01 0.000000000000000000e+00 5.330595446315307450e-04 1.365091778393321071e-03 0.000000000000000000e+00 2.137841938785136134e-03
-5.811461164157929460e-01 -5.493601334814953718e-01 0.000000000000000000e+00 5.675704562189818518e-04 1.318981936007191996e-03 0.000000000000000000e+00 2.137841938785136134e-03
-5.577695692944294459e-01 -4.975706982745247697e-01 0.000000000000000000e+00 6.010856567131251868e-04 1.270022210205344658e-03 0.000000000000000000e+00 2.137841938785136134e-03
-5.330733118501258527e-01 -4.477952265142500776e-01 0.000000000000000000e+00 6.335463484124789031e-04 1.218298489566553783e-03 0.000000000000000000e+00 2.137841938785136134e-03
-5.071006671435395186e-01 -4.001424827938314110e-01 0.000000000000000000e+00 6.648955823092357522e-04 1.163901509696880793e-03 0.000000000000000000e+00 2.137841938785136134e-03
-4.798972045606533232e-01 -3.547174978979017457e-01 0.000000000000000000e+00 6.950783644131618795e-04 1.106926710895147267e-03 0.000000000000000000e+00 2.137841938785136134e-03
-4.515106449926182264e-01 -3.116214048882860466e-01 0.000000000000000000e+00 7.240417415769131873e-04 1.047474039562061804e-03 0.000000000000000000e+00 2.137841938785136134e-03
-4.219907889293801895e-01 -2.709512460033695058e-01 0.000000000000000000e+00 7.517349026032898486e-04 9.856477975998640621e-04 0.000000000000000000e+00 2.137841938785136134e-03
-3.913894257645168517e-01 -2.327998052083506686e-01 0.000000000000000000e+00 7.781092659217188085e-04 9.215564524608187277e-04 0.000000000000000000e+00 2.137841938785136134e-03
-3.597602377822306519e-01 -1.972554565211032673e-01 0.000000000000000000e+00 8.031185590046466261e-04 8.553124360580448152e-04 0.000000000000000000e+00 2.137841938785136134e-03
-3.271587179152860014e-01 -1.644019851736823745e-01 0.000000000000000000e+00 8.267189120071560425e-04 7.870319725181412068e-04 0.000000000000000000e+00 2.137841938785136134e-03
-2.936420586858910498e-01 -1.343184677228640433e-01 0.000000000000000000e+00 8.488689205409405848e-04 7.168348455795147886e-04 0.000000000000000000e+00 2.137841938785136134e-03
-2.592690587783496037e-01 -1.070791204880979647e-01 0.000000000000000000e+00 8.695297250320070497e-04 6.448442029185983684e-04 0.000000000000000000e+00 2.137841938785136134e-03
-2.241000189790957609e-01 -8.275317079107062657e-02 0.000000000000000000e+00 8.886650781394824774e-04 5.711863382071697380e-04 0.000000000000000000e+00 2.137841938785136134e-03
-1.881966376830257470e-01 -6.140473205670561596e-02 0.000000000000000000e+00 9.062414101525772788e-04 4.959904722613251793e-04 0.000000000000000000e+00 2.137841938785136134e-03
-1.516219020539173457e-01 -4.309269348814639966e-02 0.000000000000000000e+00 9.222278867566297868e-04 4.193885250883946708e-04 0.000000000000000000e+00 2.137841938785136134e-03
-1.144399768969345255e-01 -2.787061846711023222e-02 0.000000000000000000e+00 9.365964622305557406e-04 3.415148831420595468e-04 0.000000000000000000e+00 2.137841938785136134e-03
-7.671609189733658019e-02 -1.578664990875539367e-02 0.000000000000000000e+00 9.493219290029247586e-04 2.625061631556575197e-04 0.000000000000000000e+00 2.137841938785136134e-03
-3.851642760420647543e-02 -6.883424853559701184e-03 0.000000000000000000e+00 9.603819623715473134e-04 1.825009733470615782e-04 0.000000000000000000e+00 2.137841938785136134e-03
9.200086657341899343e-05 -1.197999519278876782e-03 0.000000000000000000e+00 9.697571597461783271e-04 1.016396698467621716e-04 0.000000000000000000e+00 2.137841938785136134e-03
