4.132672 4.132672 4.132672 4.132672 4.132672 4.132672 4.132672 4.132672 4.132672 4.132672 4.132672 4.132672 4.132672 4.132672 4.132672 4.132672 4.132672 4.132672 4.132672 4.132672 4.132672 4.132672 4.132672 4.132672 4.132672 4.132672 
3.612056 3.614774 3.617746 3.621086 3.624825 3.628991 3.633608 3.638695 3.644263 3.650311 3.656823 3.663764 3.671078 3.678679 3.686448 3.694229 3.701816 3.708953 3.715323 3.720548 3.724183 3.725721 3.724599 3.720218 3.711997 3.700097 
3.159346 3.162703 3.166436 3.170708 3.175583 3.181125 3.187400 3.194469 3.202381 3.211173 3.220853 3.231400 3.242743 3.254752 3.267227 3.279877 3.292311 3.304021 3.314371 3.322586 3.327746 3.328779 3.324469 3.313473 3.294400 3.267522 
2.765685 2.769282 2.773291 2.777889 2.783150 2.789152 2.795975 2.803697 2.812386 2.822096 2.832858 2.844659 2.857434 2.871037 2.885225 2.899628 2.913721 2.926798 2.937947 2.946024 2.949634 2.947113 2.936506 2.915559 2.881755 2.834947 
2.423372 2.426838 2.430709 2.435156 2.440254 2.446080 2.452715 2.460235 2.468711 2.478195 2.488714 2.500250 2.512724 2.525968 2.539696 2.553468 2.566650 2.578370 2.587475 2.592486 2.591550 2.582390 2.562246 2.527779 2.474944 2.402372 
2.125708 2.128806 2.132270 2.136256 2.140828 2.146057 2.152013 2.158762 2.166358 2.174840 2.184213 2.194436 2.205396 2.216884 2.228558 2.239898 2.250161 2.258314 2.262980 2.262356 2.254136 2.235415 2.202549 2.150939 2.074562 1.969797 
1.866870 1.869451 1.872340 1.875665 1.879481 1.883841 1.888797 1.894395 1.900666 1.907619 1.915224 1.923399 1.931984 1.940707 1.949153 1.956709 1.962504 1.965343 1.963613 1.955185 1.937286 1.906339 1.857733 1.785407 1.680904 1.537222 
1.641793 1.643767 1.645978 1.648521 1.651434 1.654751 1.658501 1.662701 1.667348 1.672413 1.677821 1.683434 1.689028 1.694257 1.698613 1.701375 1.701532 1.697705 1.688032 1.670031 1.640422 1.594891 1.527735 1.431218 1.293993 1.104648 
1.446074 1.447371 1.448822 1.450488 1.452384 1.454521 1.456899 1.459502 1.462288 1.465180 1.468047 1.470689 1.472807 1.473969 1.473567 1.470754 1.464365 1.452817 1.433969 1.404944 1.361890 1.299648 1.211253 1.087015 0.912318 0.672073 
1.275884 1.276461 1.277103 1.277829 1.278631 1.279494 1.280383 1.281245 1.281993 1.282496 1.282565 1.281931 1.280218 1.276904 1.271274 1.262349 1.248796 1.228806 1.199921 1.158815 1.100971 1.020247 0.908178 0.752726 0.535169 0.232856 
1.127892 1.127760 1.127599 1.127383 1.127078 1.126635 1.125983 1.125026 1.123631 1.121616 1.118736 1.114658 1.108933 1.100955 1.089901 1.074657 1.053711 1.025004 0.985727 0.932039 0.858664 0.758309 0.620745 0.431125 0.166129 -0.199530 
0.999204 0.998479 0.997577 0.996430 0.994978 0.993146 0.990835 0.987920 0.984235 0.979562 0.973611 0.965998 0.956207 0.943550 0.927099 0.905600 0.877349 0.840017 0.790406 0.724102 0.634969 0.514399 0.350090 0.123852 -0.193126 -0.629856 
0.887301 0.885274 0.883010 0.880389 0.877335 0.873752 0.869517 0.864472 0.858413 0.851080 0.842133 0.831130 0.817490 0.800440 0.778948 0.751615 0.716541 0.671110 0.611707 0.533296 0.428798 0.288135 0.096654 -0.167743 -0.540365 -1.053680 
0.776814 0.774225 0.771289 0.767849 0.763811 0.759056 0.753440 0.746784 0.738859 0.729378 0.717971 0.704155 0.687298 0.666561 0.640815 0.608526 0.567594 0.515114 0.447039 0.357682 0.238967 0.079251 -0.138676 -0.441284 -0.871461 -1.466628 
0.669130 0.665985 0.662427 0.658270 0.653406 0.647702 0.640997 0.633092 0.623740 0.612630 0.599363 0.583425 0.564139 0.540602 0.511593 0.475446 0.429863 0.371646 0.296308 0.197502 0.066144 -0.111011 -0.353830 -0.693488 -1.181629 -1.864437 
0.565604 0.562007 0.557951 0.553233 0.547735 0.541319 0.533813 0.525012 0.514656 0.502422 0.487892 0.470525 0.449604 0.424164 0.392897 0.354003 0.304983 0.242348 0.161178 0.054480 -0.087820 -0.280533 -0.546171 -0.920757 -1.465833 -2.243001 
0.467535 0.463625 0.459235 0.454150 0.448254 0.441405 0.433436 0.424137 0.413247 0.400433 0.385264 0.367175 0.345408 0.318940 0.286371 0.245768 0.194439 0.128608 0.042943 -0.070161 -0.221702 -0.427959 -0.713953 -1.120459 -1.719682 -2.598412 
0.376154 0.372114 0.367604 0.362410 0.356419 0.349496 0.341473 0.332142 0.321239 0.308420 0.293240 0.275105 0.253218 0.226496 0.193450 0.152018 0.099323 0.031323 -0.057693 -0.175882 -0.335071 -0.552855 -0.856514 -1.291226 -1.939889 -2.927002 
0.292612 0.288774 0.284502 0.279589 0.273924 0.267373 0.259766 0.250891 0.240475 0.228166 0.213501 0.195860 0.174411 0.148013 0.115096 0.073478 0.020111 -0.049286 -0.140757 -0.262936 -0.428359 -0.655746 -0.974326 -1.433097 -2.124788 -3.225378 
0.217956 0.214280 0.210185 0.205471 0.200031 0.193731 0.186404 0.177838 0.167761 0.155816 0.141527 0.124258 0.103136 0.076963 0.044081 0.002176 -0.051979 -0.122909 -0.216999 -0.343363 -0.515254 -0.752537 -1.086421 -1.569745 -2.304581 -3.490461 
0.153125 0.149585 0.145642 0.141105 0.135869 0.129807 0.122755 0.114506 0.104788 0.093240 0.079376 0.062531 0.041792 0.015892 -0.016929 -0.059116 -0.114075 -0.186567 -0.283296 -0.413828 -0.592101 -0.839079 -1.187870 -1.694889 -2.469810 -3.719515 
0.098932 0.095556 0.091802 0.087493 0.082532 0.076797 0.070134 0.062339 0.053138 0.042161 0.028899 0.012649 -0.007563 -0.033083 -0.065773 -0.108206 -0.163946 -0.237956 -0.337215 -0.471685 -0.655917 -0.911873 -1.274376 -1.802940 -2.612837 -3.910175 
0.056060 0.052935 0.049482 0.045541 0.041027 0.035824 0.029781 0.022688 0.014257 0.004087 -0.008372 -0.023879 -0.043474 -0.068581 -0.101147 -0.143844 -0.200351 -0.275784 -0.377334 -0.515288 -0.704707 -0.968402 -1.342645 -1.889470 -2.728004 -4.060474 
0.025047 0.022363 0.019450 0.016159 0.012396 0.008033 0.002893 -0.003263 -0.010762 -0.020046 -0.031712 -0.046565 -0.065689 -0.090550 -0.123141 -0.166187 -0.223437 -0.300107 -0.403543 -0.544273 -0.737750 -1.007440 -1.390733 -1.951549 -2.811555 -4.168859 
0.006281 0.004731 0.002889 0.000626 -0.002169 -0.005639 -0.009976 -0.015430 -0.022336 -0.031143 -0.042450 -0.057064 -0.076078 -0.100967 -0.133743 -0.177156 -0.234999 -0.312549 -0.417249 -0.559781 -0.755849 -1.029339 -1.418362 -1.988044 -2.861563 -4.234212 
0.000000 -0.001350 -0.002983 -0.005021 -0.007576 -0.010793 -0.014870 -0.020064 -0.026723 -0.035306 -0.046424 -0.060894 -0.079816 -0.104671 -0.137474 -0.180984 -0.239005 -0.316833 -0.421943 -0.565067 -0.761991 -1.036744 -1.427674 -2.000304 -2.878281 -4.255859 
0.006281 0.004735 0.002898 0.000639 -0.002151 -0.005616 -0.009948 -0.015397 -0.022298 -0.031099 -0.042399 -0.057007 -0.076013 -0.100893 -0.133658 -0.177057 -0.234884 -0.312413 -0.417087 -0.559585 -0.755609 -1.029040 -1.417984 -1.987562 -2.860967 -4.233576 
0.025047 0.022371 0.019466 0.016183 0.012429 0.008075 0.002945 -0.003200 -0.010689 -0.019962 -0.031616 -0.046455 -0.065562 -0.090405 -0.122974 -0.165993 -0.223210 -0.299839 -0.403223 -0.543886 -0.737275 -1.006848 -1.389984 -1.950596 -2.810373 -4.167593 
0.056060 0.052945 0.049504 0.045575 0.041073 0.035885 0.029858 0.022781 0.014367 0.004216 -0.008222 -0.023706 -0.043274 -0.068351 -0.100883 -0.143538 -0.199995 -0.275365 -0.376837 -0.514691 -0.703979 -0.967503 -1.341516 -1.888042 -2.726242 -4.058590 
0.098932 0.095568 0.091829 0.087535 0.082591 0.076875 0.070233 0.062460 0.053285 0.042336 0.029104 0.012887 -0.007287 -0.032764 -0.065405 -0.107780 -0.163451 -0.237378 -0.336532 -0.470870 -0.654931 -0.910663 -1.272870 -1.801049 -2.610511 -3.907695 
0.153125 0.149600 0.145673 0.141154 0.135940 0.129901 0.122875 0.114655 0.104969 0.093457 0.079632 0.062832 0.042143 0.016298 -0.016458 -0.058571 -0.113442 -0.185828 -0.282427 -0.412796 -0.590860 -0.837568 -1.186003 -1.692559 -2.466949 -3.716463 
0.217956 0.214297 0.210221 0.205528 0.200112 0.193840 0.186543 0.178012 0.167974 0.156072 0.141832 0.124617 0.103556 0.077453 0.044650 0.002836 -0.051212 -0.122015 -0.215951 -0.342123 -0.513772 -0.750743 -1.084218 -1.567013 -2.301226 -3.486868 
0.292612 0.288794 0.284542 0.279653 0.274016 0.267496 0.259924 0.251088 0.240717 0.228458 0.213848 0.196272 0.174894 0.148578 0.115754 0.074242 0.020999 -0.048251 -0.139546 -0.261507 -0.426658 -0.653697 -0.971826 -1.430013 -2.121001 -3.221282 
0.376154 0.372135 0.367647 0.362479 0.356517 0.349627 0.341643 0.332356 0.321501 0.308738 0.293621 0.275558 0.253752 0.227122 0.194181 0.152869 0.100314 0.032479 -0.056341 -0.174291 -0.333182 -0.550589 -0.853764 -1.287851 -1.935753 -2.922444 
0.467535 0.463646 0.459279 0.454221 0.448355 0.441542 0.433613 0.424361 0.413523 0.400770 0.385670 0.367660 0.345982 0.319617 0.287165 0.246696 0.195522 0.129874 0.044425 -0.068417 -0.219635 -0.425489 -0.710968 -1.116816 -1.715235 -2.593441 
0.565604 0.562028 0.557996 0.553305 0.547839 0.541459 0.533996 0.525243 0.514943 0.502773 0.488317 0.471035 0.450211 0.424883 0.393744 0.354997 0.306148 0.243713 0.162779 0.056364 -0.085591 -0.277876 -0.542975 -0.916877 -1.461120 -2.237667 
0.669130 0.666007 0.662473 0.658344 0.653513 0.647847 0.641185 0.633331 0.624037 0.612995 0.599806 0.583958 0.564776 0.541358 0.512487 0.476500 0.431101 0.373100 0.298015 0.199512 0.068519 -0.108189 -0.350451 -0.689410 -1.176700 -1.858795 
0.776814 0.774248 0.771337 0.767926 0.763921 0.759206 0.753636 0.747032 0.739169 0.729759 0.718433 0.704713 0.687966 0.667356 0.641756 0.609637 0.568902 0.516652 0.448845 0.359805 0.241471 0.082216 -0.135143 -0.437046 -0.866366 -1.460737 
0.887301 0.885297 0.883060 0.880469 0.877452 0.873910 0.869723 0.864734 0.858740 0.851482 0.842622 0.831720 0.818196 0.801281 0.779943 0.752789 0.717921 0.672730 0.613607 0.535525 0.431417 0.291223 0.100313 -0.163383 -0.535150 -1.047601 
0.999204 0.998505 0.997632 0.996519 0.995106 0.993318 0.991060 0.988206 0.984591 0.979999 0.974142 0.966635 0.956967 0.944451 0.928162 0.906849 0.878812 0.841727 0.792402 0.726433 0.637694 0.517593 0.353850 0.128302 -0.187828 -0.623651 
1.127892 1.127791 1.127666 1.127491 1.127233 1.126843 1.126252 1.125365 1.124049 1.122124 1.119346 1.115384 1.109791 1.101962 1.091077 1.076026 1.055300 1.026846 0.987860 0.934509 0.861529 0.761642 0.624636 0.435697 0.171573 -0.193263 
1.275884 1.276487 1.277159 1.277919 1.278761 1.279668 1.280608 1.281527 1.282339 1.282915 1.283066 1.282525 1.280916 1.277722 1.272226 1.263455 1.250078 1.230290 1.201638 1.160800 1.103267 1.022905 0.911261 0.756314 0.539437 0.239498 
1.446074 1.447374 1.448830 1.450501 1.452402 1.454546 1.456932 1.459545 1.462344 1.465252 1.468140 1.470807 1.472957 1.474159 1.473806 1.471051 1.464734 1.453272 1.434525 1.405618 1.362698 1.300609 1.212380 1.088304 0.913647 0.672073 
1.641793 1.643759 1.645960 1.648493 1.651394 1.654698 1.658434 1.662618 1.667251 1.672301 1.677694 1.683295 1.688879 1.694101 1.698457 1.701222 1.701390 1.697582 1.687935 1.669967 1.640396 1.594906 1.527784 1.431282 1.294025 1.104648 
1.866870 1.869446 1.872330 1.875649 1.879458 1.883810 1.888758 1.894347 1.900609 1.907551 1.915147 1.923313 1.931889 1.940607 1.949049 1.956605 1.962406 1.965255 1.963542 1.955137 1.937264 1.906346 1.857765 1.785451 1.680934 1.537222 
2.125708 2.128803 2.132264 2.136246 2.140814 2.146039 2.151990 2.158733 2.166324 2.174800 2.184166 2.194382 2.205337 2.216820 2.228491 2.239831 2.250095 2.258255 2.262931 2.262321 2.254119 2.235417 2.202569 2.150968 2.074584 1.969797 
2.423372 2.426837 2.430705 2.435150 2.440246 2.446069 2.452701 2.460218 2.468690 2.478171 2.488686 2.500218 2.512688 2.525929 2.539654 2.553425 2.566608 2.578331 2.587443 2.592463 2.591538 2.582390 2.562258 2.527797 2.474959 2.402372 
2.765685 2.769281 2.773289 2.777886 2.783145 2.789146 2.795967 2.803687 2.812373 2.822082 2.832841 2.844640 2.857412 2.871013 2.885200 2.899602 2.913695 2.926774 2.937926 2.946009 2.949626 2.947112 2.936513 2.915570 2.881763 2.834947 
3.159346 3.162702 3.166435 3.170706 3.175580 3.181121 3.187396 3.194463 3.202374 3.211164 3.220844 3.231389 3.242731 3.254739 3.267213 3.279862 3.292296 3.304007 3.314359 3.322577 3.327740 3.328778 3.324473 3.313479 3.294405 3.267522 
3.612056 3.614773 3.617745 3.621085 3.624824 3.628989 3.633606 3.638693 3.644260 3.650307 3.656818 3.663759 3.671072 3.678673 3.686442 3.694222 3.701809 3.708946 3.715318 3.720544 3.724181 3.725720 3.724600 3.720220 3.711999 3.700097 
4.132672 4.132672 4.132672 4.132672 4.132672 4.132672 4.132672 4.132672 4.132672 4.132672 4.132672 4.132672 4.132672 4.132672 4.132672 4.132672 4.132672 4.132672 4.132672 4.132672 4.132672 4.132672 4.132672 4.132672 4.132672 4.132672 
