-2.430829169999999925e+06 -4.702341009999999776e+06 3.546604390000000130e+06 6.371761459999999963e+06
5.467423100000000559e+05 9.329371500000000233e+05 -7.576301199999999953e+05 1.320341719999999972e+06
2.089936000000000058e+04 2.853745000000000073e+04 -2.739313000000000102e+04 4.473872000000000116e+04
-5.695000000000000284e+01 3.478999999999999915e+01 5.200000000000000178e-01 6.673999999999999488e+01
-8.406999999999999318e+01 4.099999999999999645e+00 3.567999999999999972e+01 9.143000000000000682e+01
-8.406999999999999318e+01 4.099999999999999645e+00 3.567999999999999972e+01 9.143000000000000682e+01
