412899.375000 401334.468750 401474.875000 401890.906250 402582.031250 403455.812500 404395.906250 405318.906250 406191.968750 407015.406250 407798.062500 408552.812500 409308.468750 410083.812500 410763.687500 411135.750000 411862.062500 414333.125000 415107.375000 404991.468750 385973.187500 377548.718750 392211.562500 420224.531250 455715.718750 412899.375000 
401334.625000 401334.468750 401474.875000 401890.906250 402582.031250 403455.812500 404395.906250 405318.906250 406191.968750 407015.406250 407798.062500 408552.812500 409308.468750 410083.812500 410763.687500 411135.750000 411862.062500 414333.125000 415107.375000 404991.468750 385973.187500 377548.718750 392211.562500 420224.531250 455715.718750 412899.375000 
401048.531250 401048.218750 401200.718750 401647.750000 402370.093750 403255.343750 404181.375000 405077.156250 405927.718750 406737.968750 407507.093750 408249.250000 408982.156250 409662.843750 410301.062500 411428.968750 414004.312500 415777.250000 407960.250000 387532.968750 371677.968750 380547.156250 412513.656250 444638.156250 460000.906250 412899.375000 
401206.750000 401206.468750 401372.687500 401854.531250 402608.625000 403498.593750 404398.125000 405253.718750 406067.875000 406841.906250 407567.250000 408231.250000 408795.031250 409424.000000 410721.593750 412941.625000 413726.687500 406394.343750 387252.625000 368883.812500 371739.968750 401391.500000 441347.718750 462726.593750 454566.437500 412899.375000 
401302.968750 401302.687500 401491.843750 402018.156250 402811.687500 403709.968750 404587.250000 405412.906250 406205.625000 406972.593750 407693.406250 408318.875000 409051.968750 410542.250000 412465.281250 411560.375000 402505.781250 383745.875000 365383.093750 364684.437500 390237.625000 432708.625000 466091.843750 465475.093750 440146.875000 412899.375000 
401125.625000 401125.312500 401345.093750 401926.312500 402765.906250 403670.906250 404521.281250 405318.593750 406119.750000 406963.500000 407828.343750 408834.843750 410397.531250 411607.812500 408358.750000 396504.656250 378030.625000 362268.593750 360992.750000 381717.906250 421964.531250 462825.343750 474434.375000 450988.656250 423416.343750 412899.375000 
400765.031250 400764.531250 401018.062500 401661.593750 402549.093750 403457.375000 404292.437500 405125.531250 406085.125000 407210.000000 408435.843750 409618.468750 409172.968750 402616.750000 387271.406250 369173.406250 358183.687500 359833.593750 377069.343750 412272.906250 456553.625000 480675.468750 463723.187500 429689.937500 412379.000000 412899.375000 
400361.781250 400360.968750 400656.000000 401382.843750 402363.531250 403353.343750 404302.562500 405323.531250 406432.375000 407290.312500 407040.750000 403563.750000 392913.750000 374541.093750 357741.562500 353004.687500 360259.187500 375916.031250 404307.937500 447491.500000 483483.343750 478822.812500 441643.937500 413972.625000 409228.468750 412899.375000 
399995.406250 399994.468750 400395.687500 401328.531250 402539.343750 403645.687500 404421.250000 404675.000000 403773.750000 400393.875000 392503.812500 378047.093750 359150.718750 345925.843750 347955.781250 361741.687500 377866.656250 399048.187500 436328.593750 480405.062500 492910.687500 459528.593750 421062.781250 408374.250000 410550.687500 412899.375000 
399741.875000 399740.812500 400218.687500 401280.843750 401901.031250 401380.750000 399079.500000 394420.000000 386392.375000 374103.187500 358362.718750 343482.875000 337150.406250 345252.281250 363884.500000 381821.531250 397404.718750 425237.625000 470847.218750 501756.375000 481073.468750 434485.906250 410098.093750 409413.093750 412457.062500 412899.375000 
398422.500000 398419.562500 396323.843750 394876.062500 390785.968750 384054.500000 374730.093750 363082.593750 350008.000000 338202.312500 332000.187500 334656.687500 346891.687500 366397.156250 385727.750000 399061.562500 417047.500000 456641.625000 501868.093750 502679.937500 455310.218750 415882.281250 408173.718750 411946.343750 413324.968750 412899.375000 
381534.531250 383510.187500 371874.156250 364144.843750 354758.968750 344745.406250 335614.500000 328759.718750 326180.562500 329771.656250 339373.750000 352827.531250 369336.343750 387678.375000 402010.125000 413877.250000 442127.000000 491979.781250 518695.687500 483194.437500 429237.281250 408065.062500 410295.250000 413366.218750 413339.562500 412899.375000 
315510.625000 318872.343750 318548.062500 318631.218750 318745.000000 319969.343750 323382.593750 329394.312500 338029.187500 348889.781250 360683.656250 372940.781250 387789.968750 403676.218750 415384.968750 432744.468750 475556.937500 522920.000000 513575.031250 453566.625000 412524.750000 407889.281250 412503.031250 413577.625000 413093.187500 412899.375000 
326073.250000 327843.218750 331399.718750 333814.625000 336657.468750 340354.062500 345231.906250 351408.062500 358935.406250 367668.375000 376955.125000 388167.250000 403624.843750 418739.468750 431455.812500 460560.687500 513983.312500 537678.937500 488632.937500 426572.625000 406474.812500 410446.625000 413508.125000 413279.656250 412908.125000 412899.375000 
334240.468750 335644.968750 340989.781250 344744.437500 348833.093750 353384.875000 358646.062500 364853.125000 372302.156250 380937.093750 390744.625000 404279.437500 421745.500000 436389.093750 454269.781250 498388.750000 547341.250000 528301.250000 454604.343750 409952.656250 407275.218750 412693.343750 413566.437500 412969.656250 412841.000000 412899.375000 
348429.437500 349636.625000 354989.500000 358641.687500 362639.218750 367100.656250 372388.312500 378917.968750 387098.000000 396746.968750 408549.375000 425227.656250 443455.343750 458109.750000 486595.625000 541622.812500 561540.375000 497032.125000 424528.062500 404531.437500 410428.312500 413709.312500 413244.000000 412808.125000 412845.218750 412899.375000 
360737.625000 361613.531250 367552.531250 371662.468750 376379.437500 381662.218750 387954.406250 395809.812500 405535.593750 416857.687500 431382.656250 450575.812500 467931.156250 485787.093750 529180.687500 578101.625000 547174.312500 456529.187500 406790.687500 406348.718750 413015.218750 413729.468750 412924.343750 412777.031250 412871.687500 412899.375000 
376950.781250 377115.156250 383999.500000 388832.125000 394567.281250 400895.406250 408410.906250 417739.281250 428926.343750 441949.281250 459224.843750 479338.437500 495589.906250 522437.281250 576860.312500 591061.250000 507958.531250 422299.062500 401991.531250 410399.750000 414109.593750 413321.968750 412751.000000 412812.843750 412895.312500 412899.375000 
397173.375000 396931.843750 405304.437500 411011.593750 417832.062500 425204.531250 433969.406250 444698.437500 457194.125000 472219.000000 492019.781250 511434.187500 529122.750000 569523.250000 615213.250000 569912.500000 459766.187500 403474.375000 405174.062500 413421.937500 414016.812500 412913.125000 412720.718750 412866.156250 412910.031250 412899.375000 
421278.250000 421377.281250 431863.031250 438530.406250 446556.687500 455107.000000 465352.093750 477681.718750 491915.750000 509796.125000 531418.562500 549294.250000 573365.750000 622595.125000 624568.562500 518646.781250 419277.062500 399203.531250 410455.062500 414640.468750 413435.093750 412674.187500 412774.312500 412911.718750 412917.218750 412899.375000 
451440.156250 451921.093750 465164.406250 472940.781250 482637.812500 492887.625000 505327.593750 519994.718750 537016.187500 558217.375000 579424.250000 596026.250000 630143.062500 663148.562500 589464.187500 455587.750000 397286.062500 404192.562500 414346.593750 414429.031250 412851.312500 412616.031250 412854.312500 412940.500000 412919.093750 412899.375000 
490232.593750 491110.843750 508404.125000 517583.812500 530087.125000 543184.562500 559090.437500 576900.875000 596921.500000 618871.812500 634911.437500 651121.750000 686992.250000 660567.062500 519123.656250 408589.250000 394960.531250 411415.343750 415734.656250 413601.812500 412497.968750 412672.906250 412923.687500 412953.593750 412918.031250 412899.375000 
541726.500000 542916.437500 567037.187500 578394.875000 596253.625000 613415.187500 633031.250000 651944.437500 670588.125000 685188.625000 690485.312500 705585.562500 716815.375000 609548.062500 449659.250000 389338.312500 402538.468750 415865.968750 415355.843750 412845.031250 412378.375000 412764.781250 412969.437500 412956.750000 412915.937500 412899.375000 
618530.625000 617273.187500 652278.250000 665229.250000 688114.437500 704052.312500 720102.187500 730479.187500 737680.812500 736411.375000 730473.875000 741525.437500 707346.937500 547092.687500 409148.562500 388084.781250 409899.687500 417353.406250 414520.500000 412395.937500 412388.125000 412841.156250 412993.093750 412955.312500 412913.937500 412899.375000 
754028.562500 756215.750000 781133.250000 782637.250000 791265.875000 790892.312500 790137.437500 784358.875000 776911.437500 762821.625000 751704.062500 757084.500000 687575.062500 508177.062500 394112.218750 391790.531250 413421.781250 417467.343750 413944.843750 412203.093750 412426.750000 412886.031250 413002.968750 412953.250000 412912.625000 412899.375000 
864079.875000 864930.250000 857030.375000 852726.062500 841831.875000 832127.937500 819419.687500 806772.875000 793059.937500 774521.875000 761221.937500 763038.937500 680399.875000 496372.218750 390791.437500 393620.437500 414341.781250 417372.500000 413749.968750 412154.750000 412444.968750 412900.687500 413005.562500 412952.375000 412912.156250 412899.375000 
753905.875000 756095.500000 780932.937500 782475.937500 791077.562500 790725.375000 789973.312500 784216.187500 776789.625000 762728.437500 751604.812500 757020.250000 687755.625000 508412.250000 394169.125000 391766.906250 413413.250000 417469.468750 413945.750000 412202.531250 412426.531250 412886.093750 413003.000000 412953.281250 412912.625000 412899.375000 
618426.062500 617189.750000 652115.562500 665048.750000 687883.562500 703796.000000 719823.687500 730204.937500 737422.875000 736199.250000 730267.687500 741318.750000 707535.875000 547547.375000 409332.125000 388059.562500 409872.906250 417353.781250 414523.062500 412395.531250 412387.625000 412841.218750 412993.250000 412955.406250 412913.968750 412899.375000 
541679.937500 542878.750000 566956.750000 578292.312500 596108.500000 613228.062500 632798.125000 651673.937500 670287.250000 684900.062500 690209.750000 705242.750000 716754.875000 610076.875000 450082.968750 389386.531250 402487.375000 415853.093750 415358.937500 412845.906250 412377.906250 412764.750000 412969.625000 412956.843750 412915.968750 412899.375000 
490211.531250 491103.750000 508372.687500 517536.468750 530012.000000 543076.687500 558942.375000 576710.375000 596680.125000 618595.687500 634638.187500 650769.625000 686631.750000 660829.625000 519738.312500 408834.625000 394930.500000 411377.312500 415731.906250 413604.406250 412498.156250 412672.781250 412923.843750 412953.687500 412918.125000 412899.375000 
451429.468750 451922.187500 465151.031250 472916.437500 482593.968750 492821.375000 505233.343750 519868.218750 536846.000000 557994.437500 579186.250000 595743.562500 629703.812500 662977.687500 589981.375000 456082.843750 397371.375000 404140.843750 414327.718750 414430.875000 412852.812500 412616.031250 412854.281250 412940.468750 412919.125000 412899.375000 
421270.312500 421378.406250 431855.031250 438514.500000 446525.531250 455059.250000 465284.625000 477590.812500 491795.250000 509629.000000 531219.562500 549082.687500 573015.000000 622162.750000 624716.062500 519226.218750 419567.343750 399195.812500 410416.156250 414634.875000 413437.593750 412674.875000 412774.187500 412911.625000 412917.187500 412899.375000 
397166.218750 396931.906250 405298.500000 410999.687500 417808.750000 425167.937500 433916.875000 444627.187500 457102.843750 472093.343750 491853.656250 511265.125000 528885.812500 569073.562500 614974.000000 570328.250000 460242.156250 403584.656250 405132.156250 413402.187500 414018.093750 412914.906250 412720.750000 412865.937500 412909.937500 412899.375000 
376949.937500 377115.625000 383993.875000 388822.062500 394548.718750 400866.281250 408369.312500 417682.187500 428853.343750 441853.187500 459088.687500 479190.250000 495432.093750 522103.093750 576422.937500 591141.937500 508470.125000 422577.593750 401991.187500 410364.218750 414104.687500 413324.937500 412751.812500 412812.593750 412895.156250 412899.375000 
360739.656250 361614.656250 367547.625000 371653.468750 376364.187500 381639.093750 387921.875000 395765.093750 405477.718750 416784.718750 431276.625000 450443.406250 467810.312500 485579.218750 528751.687500 577854.687500 547515.812500 456950.562500 406896.031250 406313.031250 412997.687500 413731.656250 412926.687500 412777.218750 412871.531250 412899.375000 
348430.000000 349637.968750 354985.750000 358634.156250 362626.562500 367081.812500 372362.500000 378883.375000 387053.062500 396692.218750 408471.968750 425115.718750 443347.437500 457985.687500 486283.968750 541212.000000 561577.375000 497463.687500 424781.937500 404537.656250 410396.125000 413704.812500 413247.500000 412809.406250 412845.187500 412899.375000 
334239.593750 335645.781250 340986.437500 344737.625000 348821.125000 353367.125000 358622.656250 364823.593750 372265.062500 380894.187500 390689.687500 404192.250000 421645.000000 436303.062500 454080.937500 497988.781250 547095.062500 528569.250000 454976.843750 410059.843750 407245.156250 412674.875000 413567.750000 412972.375000 412841.562500 412899.375000 
326076.437500 327844.812500 331396.000000 333805.437500 336641.343750 340329.843750 345199.781250 351368.843750 358889.343750 367618.562500 376903.375000 388095.906250 403530.437500 418661.375000 431348.906250 460262.906250 513593.156250 537671.125000 488999.406250 426818.593750 406494.375000 410416.250000 413500.625000 413282.000000 412909.437500 412899.375000 
315531.375000 318886.000000 318565.843750 318649.625000 318760.718750 319976.343750 323374.218750 329366.093750 337980.250000 348825.500000 360614.812500 372863.750000 387692.906250 403587.656250 415312.593750 432557.562500 475172.375000 522659.843750 513772.187500 453907.218750 412650.875000 407873.968750 412484.156250 413575.843750 413094.562500 412899.375000 
381534.531250 383525.062500 371897.156250 364176.937500 354801.187500 344796.375000 335669.406250 328806.906250 326201.125000 329750.281250 339314.375000 352742.781250 369227.593750 387566.625000 401933.062500 413767.718750 441834.500000 491593.843750 518626.281250 483492.687500 429487.000000 408114.656250 410277.093750 413357.562500 413339.687500 412899.375000 
398422.500000 398425.406250 396332.093750 394889.906250 390807.687500 384088.562500 374781.187500 363152.531250 350089.812500 338273.562500 332034.000000 334639.500000 346822.000000 366293.968750 385641.281250 398992.312500 416875.812500 456299.250000 501599.718750 502776.437500 455580.718750 416021.000000 408187.843750 411937.906250 413322.375000 412899.375000 
399741.875000 399742.968750 400221.781250 401284.812500 401906.375000 401390.406250 399097.437500 394450.968750 386440.593750 374165.687500 358422.781250 343517.562500 337143.750000 345208.343750 363838.187500 381799.093750 397350.437500 425062.031250 470613.656250 501693.781250 481216.250000 434616.281250 410135.437500 409416.468750 412456.625000 412899.375000 
399995.406250 399996.343750 400398.875000 401332.031250 402542.718750 403649.750000 404427.781250 404686.343750 403792.750000 400423.031250 392540.375000 378075.062500 359146.031250 345884.437500 347912.500000 361737.250000 377883.843750 399018.093750 436237.062500 480355.218750 492967.937500 459590.218750 421067.687500 408368.687500 410553.500000 412899.375000 
400361.781250 400362.593750 400658.875000 401386.062500 402366.593750 403356.281250 404306.187500 405328.656250 406439.625000 407300.593750 407056.000000 403583.093750 392923.343750 374517.625000 357688.906250 352968.812500 360268.875000 375936.781250 404295.906250 447475.312500 483517.500000 478864.281250 441633.843750 413948.718750 409225.031250 412899.375000 
400765.031250 400765.531250 401019.656250 401663.093750 402549.906250 403457.593750 404292.531250 405126.062500 406086.218750 407211.281250 408436.937500 409620.781250 409178.187500 402616.250000 387248.062500 369136.781250 358171.312500 359852.187500 377081.656250 412265.531250 456562.375000 480705.156250 463725.562500 429667.937500 412369.656250 412899.375000 
401125.625000 401125.906250 401345.812500 401926.625000 402765.281250 403669.375000 404519.312500 405316.687500 406118.187500 406962.062500 407826.187500 408831.000000 410393.625000 411607.531250 408356.750000 396490.156250 378015.656250 362274.500000 361007.531250 381716.093750 421957.531250 462837.312500 474445.062500 450978.406250 423405.875000 412899.375000 
401302.968750 401303.250000 401492.687500 402018.781250 402811.781250 403709.593750 404586.875000 405413.031250 406206.437500 406973.812500 407694.500000 408318.750000 409049.625000 410540.156250 412467.406250 411561.906250 402500.687500 383744.500000 365390.625000 364684.375000 390225.281250 432705.375000 466101.062500 465476.156250 440140.406250 412899.375000 
401206.750000 401207.062500 401373.812500 401855.937500 402610.125000 403500.250000 404400.406250 405257.093750 406072.531250 406847.531250 407572.937500 408236.125000 408797.968750 409424.593750 410722.843750 412945.750000 413728.750000 406392.531250 387253.593750 368883.406250 371729.093750 401380.593750 441349.812500 462731.875000 454564.812500 412899.375000 
401048.531250 401048.843750 401201.937500 401649.375000 402372.031250 403257.718750 404184.500000 405081.468750 405933.406250 406744.656250 407513.718750 408254.875000 408986.093750 409664.625000 410301.468750 411430.781250 414007.375000 415777.656250 407959.718750 387533.000000 371671.375000 380535.312500 412509.281250 444641.937500 460001.968750 412899.375000 
401334.625000 401334.812500 401475.531250 401891.812500 402583.250000 403457.468750 404398.156250 405322.031250 406195.968750 407019.843750 407802.031250 408555.500000 409309.531250 410083.468750 410762.593750 411135.468750 411863.968750 414335.000000 415107.687500 404992.125000 385970.968750 377540.218750 392204.625000 420224.625000 455716.500000 412899.375000 
412899.375000 401334.812500 401475.531250 401891.812500 402583.250000 403457.468750 404398.156250 405322.031250 406195.968750 407019.843750 407802.031250 408555.500000 409309.531250 410083.468750 410762.593750 411135.468750 411863.968750 414335.000000 415107.687500 404992.125000 385970.968750 377540.218750 392204.625000 420224.625000 455716.500000 412899.375000 
