6.705426030895539347e-02
6.563761994567926528e-02
6.572499703725707965e-02
6.519913464405774350e-02
6.365177868078192303e-02
6.396992576264928787e-02
5.609361633374515543e-02
6.562102328127199236e-02
6.653754139980506965e-02
6.697115697866826145e-02
6.704622988066209766e-02
