1.000000000000000000e+00 0.000000000000000000e+00 0.000000000000000000e+00 -2.083333333333333467e-04 0.000000000000000000e+00 0.000000000000000000e+00 0.000000000000000000e+00
9.916666666666668073e-01 0.000000000000000000e+00 0.000000000000000000e+00 -2.083333333333333467e-04 0.000000000000000000e+00 0.000000000000000000e+00 1.322035839199239230e-04
9.833333333333335036e-01 0.000000000000000000e+00 0.000000000000000000e+00 -2.083333333333333467e-04 0.000000000000000000e+00 0.000000000000000000e+00 2.633202211753550960e-04
9.750000000000001998e-01 0.000000000000000000e+00 0.000000000000000000e+00 -2.083333333333333467e-04 0.000000000000000000e+00 0.000000000000000000e+00 3.933500677863970398e-04
9.666666666666668961e-01 0.000000000000000000e+00 0.000000000000000000e+00 -2.083333333333333467e-04 0.000000000000000000e+00 0.000000000000000000e+00 5.222933128680011007e-04
9.583333333333334814e-01 0.000000000000000000e+00 0.000000000000000000e+00 -2.083333333333333467e-04 0.000000000000000000e+00 0.000000000000000000e+00 6.501501155992011650e-04
9.500000000000001776e-01 0.000000000000000000e+00 0.000000000000000000e+00 -2.083333333333333467e-04 0.000000000000000000e+00 0.000000000000000000e+00 7.769206903030306203e-04
9.416666666666668739e-01 0.000000000000000000e+00 0.000000000000000000e+00 -2.083333333333333467e-04 0.000000000000000000e+00 0.000000000000000000e+00 9.026052243030786154e-04
9.333333333333335702e-01 0.000000000000000000e+00 0.000000000000000000e+00 -2.083333333333333467e-04 0.000000000000000000e+00 0.000000000000000000e+00 1.027203904922934733e-03
9.250000000000001554e-01 0.000000000000000000e+00 0.000000000000000000e+00 -2.083333333333333467e-04 0.000000000000000000e+00 0.000000000000000000e+00 1.150716919486187472e-03
9.166666666666668517e-01 0.000000000000000000e+00 0.000000000000000000e+00 -2.083333333333333467e-04 0.000000000000000000e+00 0.000000000000000000e+00 1.273144455316425980e-03
9.083333333333335480e-01 0.000000000000000000e+00 0.000000000000000000e+00 -2.083333333333333467e-04 0.000000000000000000e+00 0.000000000000000000e+00 1.394486699737239408e-03
9.000000000000001332e-01 0.000000000000000000e+00 0.000000000000000000e+00 -2.083333333333333467e-04 0.000000000000000000e+00 0.000000000000000000e+00 1.514743840072216687e-03
8.916666666666668295e-01 0.000000000000000000e+00 0.000000000000000000e+00 -2.083333333333333467e-04 0.000000000000000000e+00 0.000000000000000000e+00 1.633916063644946966e-03
8.833333333333335258e-01 0.000000000000000000e+00 0.000000000000000000e+00 -2.083333333333333467e-04 0.000000000000000000e+00 0.000000000000000000e+00 1.752003557779018960e-03
8.750000000000002220e-01 0.000000000000000000e+00 0.000000000000000000e+00 -2.083333333333333467e-04 0.000000000000000000e+00 0.000000000000000000e+00 1.869006509798022036e-03
8.666666666666668073e-01 0.000000000000000000e+00 0.000000000000000000e+00 -2.083333333333333467e-04 0.000000000000000000e+00 0.000000000000000000e+00 1.984925109833530956e-03
8.583333333333335036e-01 0.000000000000000000e+00 0.000000000000000000e+00 -2.083333333333333467e-04 0.000000000000000000e+00 0.000000000000000000e+00 2.099759758238645135e-03
8.500000000000001998e-01 0.000000000000000000e+00 0.000000000000000000e+00 -2.083333333333333467e-04 0.000000000000000000e+00 0.000000000000000000e+00 2.213510813207307613e-03
8.416666666666667851e-01 0.000000000000000000e+00 0.000000000000000000e+00 -2.083333333333333467e-04 0.000000000000000000e+00 0.000000000000000000e+00 2.326178515518595186e-03
8.333333333333334814e-01 0.000000000000000000e+00 0.000000000000000000e+00 -2.083333333333333467e-04 0.000000000000000000e+00 0.000000000000000000e+00 2.437763105951585088e-03
8.250000000000001776e-01 0.000000000000000000e+00 0.000000000000000000e+00 -2.083333333333333467e-04 0.000000000000000000e+00 0.000000000000000000e+00 2.548264825285355417e-03
8.166666666666668739e-01 0.000000000000000000e+00 0.000000000000000000e+00 -2.083333333333333467e-04 0.000000000000000000e+00 0.000000000000000000e+00 2.657683914298982972e-03
8.083333333333334592e-01 0.000000000000000000e+00 0.000000000000000000e+00 -2.083333333333333467e-04 0.000000000000000000e+00 0.000000000000000000e+00 2.766020613771545851e-03
8.000000000000001554e-01 0.000000000000000000e+00 0.000000000000000000e+00 -2.083333333333333467e-04 0.000000000000000000e+00 0.000000000000000000e+00 2.873275164482120420e-03
7.916666666666668517e-01 0.000000000000000000e+00 0.000000000000000000e+00 -2.083333333333333467e-04 0.000000000000000000e+00 0.000000000000000000e+00 2.979447807209785210e-03
7.833333333333335480e-01 0.000000000000000000e+00 0.000000000000000000e+00 -2.083333333333333467e-04 0.000000000000000000e+00 0.000000000000000000e+00 3.084538782733616587e-03
7.750000000000001332e-01 0.000000000000000000e+00 0.000000000000000000e+00 -2.083333333333333467e-04 0.000000000000000000e+00 0.000000000000000000e+00 3.188548331832693084e-03
7.666666666666668295e-01 0.000000000000000000e+00 0.000000000000000000e+00 -2.083333333333333467e-04 0.000000000000000000e+00 0.000000000000000000e+00 3.291476695286091065e-03
7.583333333333335258e-01 0.000000000000000000e+00 0.000000000000000000e+00 -2.083333333333333467e-04 0.000000000000000000e+00 0.000000000000000000e+00 3.393324406791937021e-03
7.500000000000002220e-01 0.000000000000000000e+00 0.000000000000000000e+00 -2.083333333333333467e-04 0.000000000000000000e+00 0.000000000000000000e+00 3.494092164745424625e-03
7.416666666666669183e-01 0.000000000000000000e+00 0.000000000000000000e+00 -2.083333333333333467e-04 0.000000000000000000e+00 0.000000000000000000e+00 3.593780318887752553e-03
7.333333333333336146e-01 0.000000000000000000e+00 0.000000000000000000e+00 -2.083333333333333467e-04 0.000000000000000000e+00 0.000000000000000000e+00 3.692389217070287440e-03
7.250000000000001998e-01 0.000000000000000000e+00 0.000000000000000000e+00 -2.083333333333333467e-04 0.000000000000000000e+00 0.000000000000000000e+00 3.789919207144395053e-03
7.166666666666668961e-01 0.000000000000000000e+00 0.000000000000000000e+00 -2.083333333333333467e-04 0.000000000000000000e+00 0.000000000000000000e+00 3.886370636961441159e-03
7.083333333333335924e-01 0.000000000000000000e+00 0.000000000000000000e+00 -2.083333333333333467e-04 0.000000000000000000e+00 0.000000000000000000e+00 3.981743854372793261e-03
7.000000000000001776e-01 0.000000000000000000e+00 0.000000000000000000e+00 -2.083333333333333467e-04 0.000000000000000000e+00 0.000000000000000000e+00 4.076039207229815824e-03
6.916666666666668739e-01 0.000000000000000000e+00 0.000000000000000000e+00 -2.083333333333333467e-04 0.000000000000000000e+00 0.000000000000000000e+00 4.169257043383877218e-03
6.833333333333335702e-01 0.000000000000000000e+00 0.000000000000000000e+00 -2.083333333333333467e-04 0.000000000000000000e+00 0.000000000000000000e+00 4.261397710686341475e-03
6.750000000000002665e-01 0.000000000000000000e+00 0.000000000000000000e+00 -2.083333333333333467e-04 0.000000000000000000e+00 0.000000000000000000e+00 4.352461556988575231e-03
6.666666666666668517e-01 0.000000000000000000e+00 0.000000000000000000e+00 -2.083333333333333467e-04 0.000000000000000000e+00 0.000000000000000000e+00 4.442448930141945987e-03
6.583333333333336590e-01 0.000000000000000000e+00 0.000000000000000000e+00 -2.083333333333333467e-04 0.000000000000000000e+00 0.000000000000000000e+00 4.531360472297227271e-03
6.500000000000002442e-01 0.000000000000000000e+00 0.000000000000000000e+00 -2.083333333333333467e-04 0.000000000000000000e+00 0.000000000000000000e+00 4.619197425225072401e-03
6.416666666666669405e-01 0.000000000000000000e+00 0.000000000000000000e+00 -2.083333333333333467e-04 0.000000000000000000e+00 0.000000000000000000e+00 4.705960360875758447e-03
6.333333333333336368e-01 0.000000000000000000e+00 0.000000000000000000e+00 -2.083333333333333467e-04 0.000000000000000000e+00 0.000000000000000000e+00 4.791649807696522767e-03
6.250000000000002220e-01 0.000000000000000000e+00 0.000000000000000000e+00 -2.083333333333333467e-04 0.000000000000000000e+00 0.000000000000000000e+00 4.876266294134602719e-03
6.166666666666669183e-01 0.000000000000000000e+00 0.000000000000000000e+00 -2.083333333333333467e-04 0.000000000000000000e+00 0.000000000000000000e+00 4.959810348637236528e-03
6.083333333333336146e-01 0.000000000000000000e+00 0.000000000000000000e+00 -2.083333333333333467e-04 0.000000000000000000e+00 0.000000000000000000e+00 5.042282499651660685e-03
6.000000000000003109e-01 0.000000000000000000e+00 0.000000000000000000e+00 -2.083333333333333467e-04 0.000000000000000000e+00 0.000000000000000000e+00 5.123683275625115149e-03
5.916666666666668961e-01 0.000000000000000000e+00 0.000000000000000000e+00 -2.083333333333333467e-04 0.000000000000000000e+00 0.000000000000000000e+00 5.204013205004835545e-03
5.833333333333335924e-01 0.000000000000000000e+00 0.000000000000000000e+00 -2.083333333333333467e-04 0.000000000000000000e+00 0.000000000000000000e+00 5.283272816238060964e-03
5.750000000000002887e-01 0.000000000000000000e+00 0.000000000000000000e+00 -2.083333333333333467e-04 0.000000000000000000e+00 0.000000000000000000e+00 5.361462637772027896e-03
5.666666666666668739e-01 0.000000000000000000e+00 0.000000000000000000e+00 -2.083333333333333467e-04 0.000000000000000000e+00 0.000000000000000000e+00 5.438583198053975436e-03
5.583333333333335702e-01 0.000000000000000000e+00 0.000000000000000000e+00 -2.083333333333333467e-04 0.000000000000000000e+00 0.000000000000000000e+00 5.514635228448029960e-03
5.500000000000002665e-01 0.000000000000000000e+00 0.000000000000000000e+00 -2.083333333333333467e-04 0.000000000000000000e+00 0.000000000000000000e+00 5.589620555466895575e-03
5.416666666666668517e-01 0.000000000000000000e+00 0.000000000000000000e+00 -2.083333333333333467e-04 0.000000000000000000e+00 0.000000000000000000e+00 5.663540217319224142e-03
5.333333333333335480e-01 0.000000000000000000e+00 0.000000000000000000e+00 -2.083333333333333467e-04 0.000000000000000000e+00 0.000000000000000000e+00 5.736395078203620698e-03
5.250000000000002442e-01 0.000000000000000000e+00 0.000000000000000000e+00 -2.083333333333333467e-04 0.000000000000000000e+00 0.000000000000000000e+00 5.808186002318686814e-03
5.166666666666669405e-01 0.000000000000000000e+00 0.000000000000000000e+00 -2.083333333333333467e-04 0.000000000000000000e+00 0.000000000000000000e+00 5.878913853863028394e-03
5.083333333333335258e-01 0.000000000000000000e+00 0.000000000000000000e+00 -2.083333333333333467e-04 0.000000000000000000e+00 0.000000000000000000e+00 5.948579497035247875e-03
5.000000000000002220e-01 0.000000000000000000e+00 0.000000000000000000e+00 -2.083333333333333467e-04 0.000000000000000000e+00 0.000000000000000000e+00 6.017183796033949428e-03
4.916666666666669183e-01 0.000000000000000000e+00 0.000000000000000000e+00 -2.083333333333333467e-04 0.000000000000000000e+00 0.000000000000000000e+00 6.084727615057735489e-03
4.833333333333336146e-01 0.000000000000000000e+00 0.000000000000000000e+00 -2.083333333333333467e-04 0.000000000000000000e+00 0.000000000000000000e+00 6.151212105819094458e-03
4.750000000000002554e-01 0.000000000000000000e+00 0.000000000000000000e+00 -2.083333333333333467e-04 0.000000000000000000e+00 0.000000000000000000e+00 6.216639704410366341e-03
4.666666666666668961e-01 0.000000000000000000e+00 0.000000000000000000e+00 -2.083333333333333467e-04 0.000000000000000000e+00 0.000000000000000000e+00 6.281011855156874539e-03
4.583333333333335924e-01 0.000000000000000000e+00 0.000000000000000000e+00 -2.083333333333333467e-04 0.000000000000000000e+00 0.000000000000000000e+00 6.344329826754387287e-03
4.500000000000002887e-01 0.000000000000000000e+00 0.000000000000000000e+00 -2.083333333333333467e-04 0.000000000000000000e+00 0.000000000000000000e+00 6.406594887898676288e-03
4.416666666666669294e-01 0.000000000000000000e+00 0.000000000000000000e+00 -2.083333333333333467e-04 0.000000000000000000e+00 0.000000000000000000e+00 6.467808307285509775e-03
4.333333333333335702e-01 0.000000000000000000e+00 0.000000000000000000e+00 -2.083333333333333467e-04 0.000000000000000000e+00 0.000000000000000000e+00 6.527971353610657716e-03
4.250000000000002665e-01 0.000000000000000000e+00 0.000000000000000000e+00 -2.083333333333333467e-04 0.000000000000000000e+00 0.000000000000000000e+00 6.587085295569890080e-03
4.166666666666669072e-01 0.000000000000000000e+00 0.000000000000000000e+00 -2.083333333333333467e-04 0.000000000000000000e+00 0.000000000000000000e+00 6.645151401858975966e-03
4.083333333333335480e-01 0.000000000000000000e+00 0.000000000000000000e+00 -2.083333333333333467e-04 0.000000000000000000e+00 0.000000000000000000e+00 6.702171423849756331e-03
4.000000000000002442e-01 0.000000000000000000e+00 0.000000000000000000e+00 -2.083333333333333467e-04 0.000000000000000000e+00 0.000000000000000000e+00 6.758148979219457536e-03
3.916666666666668850e-01 0.000000000000000000e+00 0.000000000000000000e+00 -2.083333333333333467e-04 0.000000000000000000e+00 0.000000000000000000e+00 6.813086305287552498e-03
3.833333333333335813e-01 0.000000000000000000e+00 0.000000000000000000e+00 -2.083333333333333467e-04 0.000000000000000000e+00 0.000000000000000000e+00 6.866985435582350500e-03
3.750000000000002220e-01 0.000000000000000000e+00 0.000000000000000000e+00 -2.083333333333333467e-04 0.000000000000000000e+00 0.000000000000000000e+00 6.919848403632164295e-03
3.666666666666669183e-01 0.000000000000000000e+00 0.000000000000000000e+00 -2.083333333333333467e-04 0.000000000000000000e+00 0.000000000000000000e+00 6.971677242965302300e-03
3.583333333333335591e-01 0.000000000000000000e+00 0.000000000000000000e+00 -2.083333333333333467e-04 0.000000000000000000e+00 0.000000000000000000e+00 7.022473987110077268e-03
3.500000000000001998e-01 0.000000000000000000e+00 0.000000000000000000e+00 -2.083333333333333467e-04 0.000000000000000000e+00 0.000000000000000000e+00 7.072241885801027091e-03
3.416666666666668961e-01 0.000000000000000000e+00 0.000000000000000000e+00 -2.083333333333333467e-04 0.000000000000000000e+00 0.000000000000000000e+00 7.120985645601765439e-03
3.333333333333335369e-01 0.000000000000000000e+00 0.000000000000000000e+00 -2.083333333333333467e-04 0.000000000000000000e+00 0.000000000000000000e+00 7.168708267227555386e-03
3.250000000000002331e-01 0.000000000000000000e+00 0.000000000000000000e+00 -2.083333333333333467e-04 0.000000000000000000e+00 0.000000000000000000e+00 7.215412714555607433e-03
3.166666666666668739e-01 0.000000000000000000e+00 0.000000000000000000e+00 -2.083333333333333467e-04 0.000000000000000000e+00 0.000000000000000000e+00 7.261101951463132080e-03
3.083333333333335702e-01 0.000000000000000000e+00 0.000000000000000000e+00 -2.083333333333333467e-04 0.000000000000000000e+00 0.000000000000000000e+00 7.305778941827339827e-03
3.000000000000002109e-01 0.000000000000000000e+00 0.000000000000000000e+00 -2.083333333333333467e-04 0.000000000000000000e+00 0.000000000000000000e+00 7.349446670359775433e-03
2.916666666666668517e-01 0.000000000000000000e+00 0.000000000000000000e+00 -2.083333333333333467e-04 0.000000000000000000e+00 0.000000000000000000e+00 7.392111052022739236e-03
2.833333333333335480e-01 0.000000000000000000e+00 0.000000000000000000e+00 -2.083333333333333467e-04 0.000000000000000000e+00 0.000000000000000000e+00 7.433778334461820479e-03
2.750000000000001887e-01 0.000000000000000000e+00 0.000000000000000000e+00 -2.083333333333333467e-04 0.000000000000000000e+00 0.000000000000000000e+00 7.474453185453405930e-03
2.666666666666668850e-01 0.000000000000000000e+00 0.000000000000000000e+00 -2.083333333333333467e-04 0.000000000000000000e+00 0.000000000000000000e+00 7.514140272773881489e-03
2.583333333333335258e-01 0.000000000000000000e+00 0.000000000000000000e+00 -2.083333333333333467e-04 0.000000000000000000e+00 0.000000000000000000e+00 7.552844264199633922e-03
2.500000000000002220e-01 0.000000000000000000e+00 0.000000000000000000e+00 -2.083333333333333467e-04 0.000000000000000000e+00 0.000000000000000000e+00 7.590572464079219789e-03
2.416666666666668906e-01 0.000000000000000000e+00 0.000000000000000000e+00 -2.083333333333333467e-04 0.000000000000000000e+00 0.000000000000000000e+00 7.627334050021718041e-03
2.333333333333335591e-01 0.000000000000000000e+00 0.000000000000000000e+00 -2.083333333333333467e-04 0.000000000000000000e+00 0.000000000000000000e+00 7.663135727788968586e-03
2.250000000000002276e-01 0.000000000000000000e+00 0.000000000000000000e+00 -2.083333333333333467e-04 0.000000000000000000e+00 0.000000000000000000e+00 7.697984196061205195e-03
2.166666666666668684e-01 0.000000000000000000e+00 0.000000000000000000e+00 -2.083333333333333467e-04 0.000000000000000000e+00 0.000000000000000000e+00 7.731886153518658170e-03
2.083333333333335369e-01 0.000000000000000000e+00 0.000000000000000000e+00 -2.083333333333333467e-04 0.000000000000000000e+00 0.000000000000000000e+00 7.764850867117735478e-03
2.000000000000001776e-01 0.000000000000000000e+00 0.000000000000000000e+00 -2.083333333333333467e-04 0.000000000000000000e+00 0.000000000000000000e+00 7.796892268245417777e-03
1.916666666666668462e-01 0.000000000000000000e+00 0.000000000000000000e+00 -2.083333333333333467e-04 0.000000000000000000e+00 0.000000000000000000e+00 7.828020740798873403e-03
1.833333333333335147e-01 0.000000000000000000e+00 0.000000000000000000e+00 -2.083333333333333467e-04 0.000000000000000000e+00 0.000000000000000000e+00 7.858246529480323456e-03
1.750000000000001554e-01 0.000000000000000000e+00 0.000000000000000000e+00 -2.083333333333333467e-04 0.000000000000000000e+00 0.000000000000000000e+00 7.887582757898243049e-03
1.666666666666668239e-01 0.000000000000000000e+00 0.000000000000000000e+00 -2.083333333333333467e-04 0.000000000000000000e+00 0.000000000000000000e+00 7.916047993632737562e-03
1.583333333333334925e-01 0.000000000000000000e+00 0.000000000000000000e+00 -2.083333333333333467e-04 0.000000000000000000e+00 0.000000000000000000e+00 7.943656726765719114e-03
1.500000000000001610e-01 0.000000000000000000e+00 0.000000000000000000e+00 -2.083333333333333467e-04 0.000000000000000000e+00 0.000000000000000000e+00 7.970423273250624302e-03
1.416666666666668573e-01 0.000000000000000000e+00 0.000000000000000000e+00 -2.083333333333333467e-04 0.000000000000000000e+00 0.000000000000000000e+00 7.996365690482025793e-03
1.333333333333335258e-01 0.000000000000000000e+00 0.000000000000000000e+00 -2.083333333333333467e-04 0.000000000000000000e+00 0.000000000000000000e+00 8.021509991482166785e-03
1.250000000000001943e-01 0.000000000000000000e+00 0.000000000000000000e+00 -2.083333333333333467e-04 0.000000000000000000e+00 0.000000000000000000e+00 8.045877276563643404e-03
1.166666666666668906e-01 0.000000000000000000e+00 0.000000000000000000e+00 -2.083333333333333467e-04 0.000000000000000000e+00 0.000000000000000000e+00 8.069490306231951599e-03
1.083333333333335591e-01 0.000000000000000000e+00 0.000000000000000000e+00 -2.083333333333333467e-04 0.000000000000000000e+00 0.000000000000000000e+00 8.092382230901093779e-03
1.000000000000002276e-01 0.000000000000000000e+00 0.000000000000000000e+00 -2.083333333333333467e-04 0.000000000000000000e+00 0.000000000000000000e+00 8.114582010285741401e-03
9.166666666666693775e-02 0.000000000000000000e+00 0.000000000000000000e+00 -2.083333333333333467e-04 0.000000000000000000e+00 0.000000000000000000e+00 8.136118366216051750e-03
8.333333333333360626e-02 0.000000000000000000e+00 0.000000000000000000e+00 -2.083333333333333467e-04 0.000000000000000000e+00 0.000000000000000000e+00 8.157033749482012208e-03
7.500000000000027478e-02 0.000000000000000000e+00 0.000000000000000000e+00 -2.083333333333333467e-04 0.000000000000000000e+00 0.000000000000000000e+00 8.177368746257447293e-03
6.666666666666690166e-02 0.000000000000000000e+00 0.000000000000000000e+00 -2.083333333333333467e-04 0.000000000000000000e+00 0.000000000000000000e+00 8.197160882130761009e-03
5.833333333333357018e-02 0.000000000000000000e+00 0.000000000000000000e+00 -2.083333333333333467e-04 0.000000000000000000e+00 0.000000000000000000e+00 8.216459157650634476e-03
5.000000000000023870e-02 0.000000000000000000e+00 0.000000000000000000e+00 -2.083333333333333467e-04 0.000000000000000000e+00 0.000000000000000000e+00 8.235317964656364148e-03
4.166666666666686558e-02 0.000000000000000000e+00 0.000000000000000000e+00 -2.083333333333333467e-04 0.000000000000000000e+00 0.000000000000000000e+00 8.253787828376419819e-03
3.333333333333353410e-02 0.000000000000000000e+00 0.000000000000000000e+00 -2.083333333333333467e-04 0.000000000000000000e+00 0.000000000000000000e+00 8.271930877589220299e-03
2.500000000000020262e-02 0.000000000000000000e+00 0.000000000000000000e+00 -2.083333333333333467e-04 0.000000000000000000e+00 0.000000000000000000e+00 8.289806990679028653e-03
1.666666666666683644e-02 0.000000000000000000e+00 0.000000000000000000e+00 -2.083333333333333467e-04 0.000000000000000000e+00 0.000000000000000000e+00 8.307477896458550365e-03
8.333333333333503221e-03 0.000000000000000000e+00 0.000000000000000000e+00 -2.083333333333333467e-04 0.000000000000000000e+00 0.000000000000000000e+00 8.325013392390948758e-03
1.353084311261909534e-16 0.000000000000000000e+00 0.000000000000000000e+00 -2.083333333333333467e-04 0.000000000000000000e+00 0.000000000000000000e+00 8.342479225524236305e-03
