9.843457243587029097e+02 1.193848225783578528e+03 1.226791544081595021e+03 1.201628984802250898e+03 1.149829479842240517e+03 1.101118344984577561e+03
1.180867876135447432e+03 1.335319895774630368e+03 1.348482175938094088e+03 1.301141610233574511e+03 1.233328401586800965e+03 1.153831959730195877e+03
1.413405265599143604e+03 1.500724118064413688e+03 1.483436521501384505e+03 1.415082324252909984e+03 1.329969862460564400e+03 1.236825614441352855e+03
