0.000000 2.370878 2.233373 2.201146 2.141600 2.077622 2.003738 1.921112 1.833705 1.743407 1.650208 1.553290 1.453005 1.351355 1.250565 1.151899 1.053842 0.949314 0.839768 0.745357 0.717893 0.879162 1.054545 0.976033 1.361948 0.000000 
2.261666 2.370878 2.233373 2.201146 2.141600 2.077622 2.003738 1.921112 1.833705 1.743407 1.650208 1.553290 1.453005 1.351355 1.250565 1.151899 1.053842 0.949314 0.839768 0.745357 0.717893 0.879162 1.054545 0.976033 1.361948 0.000000 
-0.575752 -0.551612 -0.478583 -0.384091 -0.279159 -0.175325 -0.073983 0.029711 0.140661 0.259090 0.380092 0.497151 0.605705 0.703446 0.788262 0.857328 0.906723 0.939980 0.987941 1.077969 1.224803 1.443225 1.443318 1.274268 1.607760 0.000000 
-0.111344 -0.062261 -0.015343 0.045012 0.100056 0.149857 0.199117 0.256353 0.327264 0.411172 0.502758 0.596994 0.692308 0.789541 0.890038 0.996986 1.120816 1.290577 1.527312 1.758877 1.894865 1.883783 1.562247 1.559340 2.024116 0.000000 
0.141577 0.229594 0.280053 0.342237 0.393157 0.439494 0.487822 0.547813 0.624771 0.716647 0.818005 0.926881 1.047732 1.188982 1.360992 1.576846 1.848187 2.158595 2.396284 2.386885 2.151333 1.815956 1.516928 2.200942 2.738573 0.000000 
0.011313 0.133437 0.222238 0.332260 0.433832 0.533536 0.639630 0.765332 0.917605 1.094284 1.291360 1.511538 1.763589 2.053859 2.378716 2.712364 2.981059 3.046296 2.768601 2.240241 1.866897 1.810393 2.164272 3.558084 3.445358 0.000000 
-0.010470 0.180164 0.326936 0.509140 0.683926 0.863100 1.060703 1.296554 1.578060 1.897314 2.242519 2.605011 2.969999 3.301710 3.534278 3.565194 3.285964 2.695206 2.056230 1.890652 2.461726 3.242635 4.003616 4.965987 3.156028 0.000000 
0.009319 0.309953 0.547824 0.840677 1.126155 1.417586 1.732032 2.086495 2.470865 2.849224 3.181282 3.429857 3.549036 3.479656 3.170325 2.637116 2.080459 1.931905 2.644495 4.206937 5.747929 6.165392 5.717657 4.802693 1.073303 0.000000 
0.007756 0.391306 0.719422 1.087207 1.412263 1.683449 1.921686 2.141650 2.315711 2.398976 2.364944 2.216696 1.982139 1.735262 1.656045 2.082059 3.414166 5.745585 8.433797 10.196207 9.888575 7.594605 4.859025 2.102052 -2.386484 0.000000 
0.003064 0.156822 0.366196 0.494786 0.489816 0.401511 0.298491 0.256713 0.274769 0.365012 0.593850 1.085434 2.013666 3.599930 6.061566 9.408031 13.094207 15.875443 16.364264 13.994120 9.464931 4.486095 0.754958 -2.226079 -5.808543 0.000000 
0.002506 -0.213517 -0.506153 -0.295034 -0.214342 0.194534 0.896331 1.947035 3.322141 5.058506 7.262260 10.051321 13.471745 17.351271 21.132784 23.797575 24.131566 21.412887 15.988693 9.171599 2.645018 -2.116344 -4.583286 -6.261457 -7.923492 0.000000 
0.001646 7.270507 7.544632 10.372254 12.444771 14.631554 16.910103 19.247482 21.679037 24.246905 26.918760 29.462803 31.399839 32.057057 30.746135 27.023430 20.959214 13.313415 5.381289 -1.489243 -6.294916 -8.569788 -8.782820 -8.750116 -8.525371 0.000000 
41.134056 42.936596 40.847269 39.886601 39.146662 38.607232 38.346248 38.228630 38.120233 37.811761 36.961935 35.145508 31.994250 27.366631 21.374953 14.323580 6.724703 -0.660559 -6.907303 -11.195811 -13.087891 -12.704598 -10.985215 -9.601420 -8.116989 0.000000 
36.375224 37.545228 37.247546 36.916558 36.625031 36.142085 35.353694 34.135281 32.347372 29.857836 26.573770 22.489670 17.705800 12.354627 6.514049 0.269921 -6.040981 -11.681489 -15.720411 -17.480594 -16.873652 -14.475795 -11.489186 -9.288091 -7.176293 0.000000 
29.861876 28.188699 28.359334 27.951860 27.091449 25.974831 24.479245 22.572897 20.239835 17.458065 14.224352 10.545546 6.401044 1.692752 -3.675942 -9.522006 -15.144688 -19.456922 -21.505896 -20.976872 -18.318159 -14.534196 -10.879705 -8.330445 -6.056576 0.000000 
25.498631 22.799849 22.524141 21.592174 20.263829 18.781075 17.043317 15.031250 12.699610 9.970239 6.762070 2.988431 -1.468948 -6.700472 -12.556633 -18.389529 -23.080481 -25.507304 -25.151797 -22.352753 -18.078421 -13.509548 -9.685040 -7.134454 -4.972779 0.000000 
19.145345 16.538693 16.097550 15.008687 13.578588 11.980565 10.094903 7.862422 5.194359 1.998141 -1.797098 -6.257465 -11.425937 -17.170763 -22.933441 -27.660875 -30.173970 -29.801784 -26.763812 -22.007155 -16.723591 -11.939069 -8.305763 -5.958257 -4.025252 0.000000 
10.312391 7.538033 6.976718 5.675173 4.006277 2.126260 -0.107009 -2.765356 -5.926964 -9.641966 -13.934931 -18.812805 -24.152896 -29.473769 -33.814373 -36.009345 -35.296468 -31.792470 -26.418944 -20.401317 -14.785784 -10.228672 -6.987788 -4.926066 -3.236972 0.000000 
-1.198449 -4.496436 -5.220908 -6.883693 -8.908395 -11.117557 -13.688755 -16.691790 -20.172114 -24.135221 -28.554980 -33.296243 -37.908888 -41.501876 -42.966888 -41.542439 -37.301525 -31.148639 -24.336688 -17.935850 -12.592533 -8.559283 -5.806175 -4.058830 -2.589737 0.000000 
-16.056513 -20.081674 -21.040795 -23.132814 -25.485909 -27.944431 -30.740471 -33.934678 -37.528772 -41.449835 -45.493656 -49.164899 -51.585657 -51.728033 -48.942440 -43.403231 -36.083972 -28.274551 -21.045634 -14.999311 -10.324944 -6.962791 -4.722166 -3.291483 -2.049168 0.000000 
-35.309878 -40.362639 -41.730517 -44.374906 -47.033582 -49.671195 -52.594618 -55.817148 -59.190950 -62.355456 -64.666146 -65.202921 -63.065873 -57.883437 -50.146119 -41.039613 -31.908391 -23.757051 -17.066742 -11.900841 -8.106041 -5.456144 -3.709162 -2.581311 -1.585681 0.000000 
-60.800403 -67.356398 -69.278170 -72.503737 -75.253987 -77.787106 -80.388167 -82.766261 -84.301468 -84.134964 -81.381784 -75.489788 -66.656113 -55.900607 -44.662047 -34.222679 -25.349965 -18.277367 -12.885153 -8.905688 -6.056888 -4.091640 -2.796843 -1.949649 -1.189567 0.000000 
-95.800326 -104.779212 -107.108398 -110.577459 -112.507377 -113.491895 -113.287948 -111.016080 -105.807562 -97.217482 -85.564606 -71.955163 -57.937824 -44.933611 -33.820287 -24.876955 -17.973462 -12.790903 -8.972950 -6.204764 -4.238074 -2.882534 -1.984834 -1.389435 -0.845911 0.000000 
-146.678548 -156.690304 -157.343449 -158.127115 -154.101833 -146.873127 -136.017787 -121.592584 -104.429382 -86.167225 -68.546012 -52.902361 -39.897701 -29.586006 -21.660445 -15.690524 -11.255699 -7.994340 -5.614903 -3.895671 -2.674118 -1.829776 -1.267406 -0.890530 -0.541944 0.000000 
-192.545798 -196.510007 -187.050870 -170.504867 -147.450883 -124.147212 -101.584285 -81.012581 -63.037153 -48.151482 -36.272090 -27.036625 -19.972688 -14.632334 -10.634915 -7.670075 -5.488734 -3.893911 -2.734156 -1.897639 -1.303735 -0.893101 -0.619130 -0.434823 -0.264053 0.000000 
0.013873 -0.057059 0.065249 0.133227 0.160813 0.174316 0.177957 0.170637 0.157369 0.141062 0.124495 0.107890 0.091273 0.075949 0.062196 0.050070 0.039630 0.030791 0.023462 0.017467 0.012707 0.009072 0.006418 0.004415 0.002471 0.000000 
192.555935 196.458662 187.008610 170.518352 147.540929 124.305888 101.797630 81.257929 63.293587 48.401756 36.504237 27.243879 20.152219 14.784030 10.760046 7.771366 5.569224 3.956624 2.781978 1.933252 1.329640 0.911589 0.632198 0.443817 0.269096 0.000000 
146.679619 156.658304 157.292658 158.061027 154.035133 146.819933 135.997688 121.620286 104.508531 86.290833 68.699364 53.067289 40.058181 29.731525 21.785844 15.794690 11.339740 8.060408 5.665557 3.933492 2.701623 1.849373 1.281224 0.900043 0.547308 0.000000 
95.805065 104.759167 107.074452 110.525145 112.438133 113.408671 113.198238 110.932414 105.745435 97.192242 85.584817 72.018238 58.032438 45.043576 33.930638 24.977673 18.059519 12.860906 9.027666 6.246064 4.268243 2.904020 1.999954 1.399856 0.851834 0.000000 
60.801104 67.343019 69.257081 72.470196 75.206533 77.724776 80.311139 82.677051 84.205861 84.043890 81.310165 75.451863 66.659851 55.942758 44.730671 34.303093 25.429561 18.348198 12.943579 8.951168 6.090629 4.115780 2.813825 1.961390 1.196312 0.000000 
35.310017 40.353069 41.716198 44.352582 47.001551 49.628400 52.539881 55.749236 59.109347 62.262848 64.569839 65.115195 63.001771 57.855027 50.156020 41.080375 31.966940 23.820245 17.125162 11.949494 8.143529 5.483437 3.728485 2.594780 1.593539 0.000000 
16.056570 20.074337 21.030184 23.116480 25.462175 27.912705 30.699676 33.883349 37.465420 41.373663 45.405063 49.068633 51.492561 51.652947 48.898657 43.396020 36.108368 28.318763 21.096811 15.047613 10.364969 6.993089 4.744024 3.306979 2.058441 0.000000 
1.198452 4.490723 5.212381 6.871023 8.890428 11.093327 13.657152 16.651687 20.122204 24.074114 28.481107 33.209603 37.813327 41.407411 42.888489 41.493638 37.287984 31.165818 24.373160 17.978987 12.632783 8.591812 5.830471 4.076494 2.600732 0.000000 
-10.312662 -7.542861 -6.983573 -5.684869 -4.019672 -2.144079 0.083766 2.735549 5.889227 9.595006 13.877057 18.742351 24.069425 29.380971 33.722649 35.933493 35.249428 31.779007 26.433816 20.433079 14.822346 10.261570 7.013860 4.945840 3.250004 0.000000 
-19.145998 -16.543507 -16.103300 -15.016358 -13.588671 -11.993458 -10.111329 -7.883210 -5.220618 -2.031259 1.755468 6.205359 11.361140 17.092456 22.845851 27.574688 30.103701 29.759240 26.752229 22.020511 16.750574 11.968748 8.331892 5.979634 4.040536 0.000000 
-25.498867 -22.805133 -22.529372 -21.598722 -20.272422 -18.791944 -17.056974 -15.048098 -12.720159 -9.995337 -6.792534 -3.025879 1.422118 6.641139 12.483775 18.307597 23.000474 25.443208 25.113833 22.342645 18.089453 13.530936 9.708114 7.155974 4.990111 0.000000 
-29.861896 -28.191902 -28.362887 -27.956777 -27.098617 -25.985020 -24.493394 -22.591913 -20.264474 -17.488711 -14.261194 -10.588095 -6.449048 -1.747721 3.611229 9.446548 15.062980 19.379666 21.445555 20.941570 18.307804 14.541272 10.894947 8.349037 6.074848 0.000000 
-36.376301 -37.538807 -37.244159 -36.915065 -36.625222 -36.145236 -35.360990 -34.148676 -32.369352 -29.890949 -26.620058 -22.549778 -17.778076 -12.435779 -6.601697 -0.363000 5.944220 11.586647 15.637032 17.418418 16.837514 14.462663 11.491007 9.299543 7.193517 0.000000 
-41.133689 -42.912994 -40.828953 -39.865363 -39.122855 -38.581263 -38.318177 -38.199373 -38.091635 -37.787656 -36.948717 -35.152029 -32.028353 -27.431170 -21.467208 -14.436561 -6.849180 0.534775 6.791187 11.099807 13.019273 12.664002 10.966475 9.599418 8.130078 0.000000 
0.001646 -7.259977 -7.529554 -10.349602 -12.414476 -14.592959 -16.861744 -19.188283 -21.608061 -24.163813 -26.825109 -29.364021 -31.307074 -31.986656 -30.715161 -27.043006 -21.029447 -13.421949 -5.507720 1.365901 6.191268 8.494202 8.733318 8.722608 8.526631 0.000000 
0.002506 0.218528 0.512099 0.302284 0.223961 -0.181463 -0.878350 -1.922479 -3.288730 -5.013305 -7.201765 -9.971146 -13.368737 -17.228131 -21.001746 -23.682133 -24.058538 -21.398787 -16.030819 -9.251189 -2.737144 2.032325 4.516098 6.211685 7.890877 0.000000 
0.003064 -0.150694 -0.360260 -0.489082 -0.484304 -0.396308 -0.293553 -0.251944 -0.269817 -0.359084 -0.585455 -1.071992 -1.991170 -3.563046 -6.005034 -9.331766 -13.008869 -15.802383 -16.324459 -13.994361 -9.495859 -4.530884 -0.799875 2.187373 5.771749 0.000000 
0.007756 -0.375794 -0.704584 -1.073395 -1.399807 -1.672598 -1.912636 -2.134611 -2.310962 -2.396730 -2.365419 -2.219920 -1.987726 -1.741808 -1.659999 -2.077466 -3.395388 -5.713004 -8.397452 -10.169960 -9.880043 -7.601568 -4.873719 -2.118193 2.374166 0.000000 
0.009319 -0.291316 -0.529704 -0.823093 -1.109433 -1.401908 -1.717463 -2.072984 -2.458331 -2.837699 -3.170967 -3.421210 -3.542813 -3.476732 -3.171286 -2.641263 -2.084257 -1.929438 -2.631663 -4.186021 -5.726783 -6.151175 -5.712839 -4.807571 -1.081712 0.000000 
-0.010470 -0.201103 -0.344008 -0.520579 -0.688228 -0.860075 -1.051030 -1.281274 -1.558171 -1.873689 -2.216090 -2.576897 -2.941540 -3.274450 -3.509930 -3.545682 -3.272701 -2.687390 -2.049914 -1.881193 -2.448068 -3.228309 -3.994131 -4.967845 -3.165847 0.000000 
0.011313 -0.110812 -0.199580 -0.310897 -0.413014 -0.512406 -0.617769 -0.743033 -0.895478 -1.072770 -1.270545 -1.491268 -1.743647 -2.034089 -2.359191 -2.693759 -2.965106 -3.035661 -2.765354 -2.244094 -1.875626 -1.821423 -2.175742 -3.573713 -3.467119 0.000000 
0.141577 0.053560 -0.020329 -0.114797 -0.205919 -0.293318 -0.379303 -0.471794 -0.575887 -0.689551 -0.806926 -0.925456 -1.049457 -1.188126 -1.353600 -1.561488 -1.826387 -2.134764 -2.376633 -2.376589 -2.151759 -1.823676 -1.523832 -2.205454 -2.752575 0.000000 
-0.111344 -0.160428 -0.173231 -0.190689 -0.199944 -0.206689 -0.214730 -0.230963 -0.260866 -0.305155 -0.360797 -0.425255 -0.499315 -0.585713 -0.686839 -0.805718 -0.951150 -1.148814 -1.414650 -1.669961 -1.819028 -1.813698 -1.501405 -1.520983 -2.022058 0.000000 
-0.575752 -0.599892 -0.549048 -0.484422 -0.397921 -0.307664 -0.225906 -0.163199 -0.126759 -0.119643 -0.142005 -0.193523 -0.274785 -0.385422 -0.520644 -0.670153 -0.818730 -0.956280 -1.100203 -1.266445 -1.459899 -1.698613 -1.694550 -1.474603 -1.767611 0.000000 
2.261666 2.152453 1.763094 1.419614 1.032426 0.638037 0.243708 -0.146382 -0.528471 -0.896336 -1.237313 -1.533634 -1.767539 -1.927096 -2.009216 -2.020382 -1.974891 -1.891079 -1.803278 -1.760783 -1.809781 -1.997469 -1.992740 -1.424409 -1.350880 0.000000 
0.000000 0.000000 0.000000 0.000000 0.000000 0.000000 0.000000 0.000000 0.000000 0.000000 0.000000 0.000000 0.000000 0.000000 0.000000 0.000000 0.000000 0.000000 0.000000 0.000000 0.000000 0.000000 0.000000 0.000000 0.000000 0.000000 
